HLS/bdw_work/sims/PIP_URL_V/verilog.vcd
$date
    Apr 18, 2022  07:37:31
$end
$version
    TOOL:	ncsim(64)	15.20-s084
$end
$timescale
    1 ps
$end

$scope module top $end

$scope module dut0 $end
$var reg       1 !    clk  $end
$var reg       1 "    rst  $end
$var wire      1 #    din_busy  $end
$var reg       1 $    din_vld  $end
$var reg       8 %    din_data_a [7:0] $end
$var reg       8 &    din_data_b [7:0] $end
$var reg       8 '    din_data_c [7:0] $end
$var reg       8 (    din_data_d [7:0] $end
$var reg       8 )    din_data_e [7:0] $end
$var reg       8 *    din_data_f [7:0] $end
$var reg       8 +    din_data_g [7:0] $end
$var reg       8 ,    din_data_h [7:0] $end
$var reg       1 -    dout_busy  $end
$var wire      1 .    dout_vld  $end
$var wire     256 /    dout_data [255:0] $end

$scope module dut0 $end
$var wire      1 0    clk  $end
$var wire      1 1    rst  $end
$var wire      1 2    din_vld  $end
$var wire      8 3    din_data_a [7:0] $end
$var wire      8 4    din_data_b [7:0] $end
$var wire      8 5    din_data_c [7:0] $end
$var wire      8 6    din_data_d [7:0] $end
$var wire      8 7    din_data_e [7:0] $end
$var wire      8 8    din_data_f [7:0] $end
$var wire      8 9    din_data_g [7:0] $end
$var wire      8 :    din_data_h [7:0] $end
$var wire      1 ;    dout_busy  $end
$var wire      1 #    din_busy  $end
$var wire      1 .    dout_vld  $end
$var wire     256 /    dout_data [255:0] $end
$var reg       1 <    dout_m_req_m_prev_trig_req  $end
$var reg       1 =    dout_m_unacked_req  $end
$var wire      1 >    dut_Xor_1Ux1U_1U_1_4_out1  $end
$var wire      1 ?    dut_Or_1Ux1U_1U_4_5_out1  $end
$var reg       1 @    dut_N_Muxb_1_2_3_4_1_out1  $end
$var reg       1 A    din_m_unvalidated_req  $end
$var wire      1 B    dut_gen_busy_r_1_2_gnew_req  $end
$var wire      1 C    dut_gen_busy_r_1_2_gdiv  $end
$var wire      1 D    dut_gen_busy_r_1_2_gen_busy_din_m_data_is_invalid_next  $end
$var reg       5 E    global_state_next [4:0] $end
$var wire      1 F    dut_OrReduction_3U_1U_4_148_out1  $end
$var wire      1 G    dut_Equal_3Ux1U_1U_4_147_out1  $end
$var wire      1 H    dut_Equal_3Ux2U_1U_4_146_out1  $end
$var wire      1 I    dut_Equal_3Ux2U_1U_4_145_out1  $end
$var reg       3 J    dut_N_Mux_3_2_1_4_139_in3 [2:0] $end
$var wire      1 K    dut_LessThan_8Ux8U_1U_4_138_out1  $end
$var reg       8 L    dut_N_Mux_8_8_0_4_137_out1 [7:0] $end
$var reg       3 M    dut_N_Mux_8_8_0_4_137_ctrl1 [2:0] $end
$var reg       8 N    dut_N_Mux_8_8_0_4_136_out1 [7:0] $end
$var reg       3 O    dut_N_Mux_8_8_0_4_136_ctrl1 [2:0] $end
$var reg       8 P    dut_N_Mux_8_8_0_4_136_in2 [7:0] $end
$var reg       8 Q    dut_N_Mux_8_8_0_4_136_in3 [7:0] $end
$var reg       8 R    dut_N_Mux_8_8_0_4_136_in4 [7:0] $end
$var reg       8 S    dut_N_Mux_8_8_0_4_136_in5 [7:0] $end
$var reg       8 T    dut_N_Mux_8_8_0_4_136_in6 [7:0] $end
$var reg       8 U    dut_N_Mux_8_8_0_4_136_in7 [7:0] $end
$var reg       8 V    dut_N_Mux_8_8_0_4_136_in8 [7:0] $end
$var reg       8 W    dut_N_Mux_8_8_0_4_136_in9 [7:0] $end
$var reg       1 X    gs_ctrl144  $end
$var wire      1 Y    dut_OrReduction_3U_1U_4_127_out1  $end
$var wire      1 Z    dut_Equal_3Ux1U_1U_4_126_out1  $end
$var wire      1 [    dut_Equal_3Ux2U_1U_4_125_out1  $end
$var wire      1 \    dut_Equal_3Ux2U_1U_4_124_out1  $end
$var reg       3 ]    dut_N_Mux_3_2_1_4_118_in3 [2:0] $end
$var wire      1 ^    dut_LessThan_8Ux8U_1U_4_117_out1  $end
$var reg       8 _    dut_N_Mux_8_8_0_4_116_out1 [7:0] $end
$var reg       3 `    dut_N_Mux_8_8_0_4_116_ctrl1 [2:0] $end
$var reg       8 a    dut_N_Mux_8_8_0_4_115_out1 [7:0] $end
$var reg       3 b    dut_N_Mux_8_8_0_4_115_ctrl1 [2:0] $end
$var reg       8 c    dut_N_Mux_8_8_0_4_115_in2 [7:0] $end
$var reg       8 d    dut_N_Mux_8_8_0_4_115_in3 [7:0] $end
$var reg       8 e    dut_N_Mux_8_8_0_4_115_in4 [7:0] $end
$var reg       8 f    dut_N_Mux_8_8_0_4_115_in5 [7:0] $end
$var reg       8 g    dut_N_Mux_8_8_0_4_115_in6 [7:0] $end
$var reg       8 h    dut_N_Mux_8_8_0_4_115_in7 [7:0] $end
$var reg       8 i    dut_N_Mux_8_8_0_4_115_in8 [7:0] $end
$var reg       8 j    dut_N_Mux_8_8_0_4_115_in9 [7:0] $end
$var reg       1 k    gs_ctrl124  $end
$var wire      1 l    dut_OrReduction_3U_1U_4_106_out1  $end
$var wire      1 m    dut_Equal_3Ux1U_1U_4_105_out1  $end
$var wire      1 n    dut_Equal_3Ux2U_1U_4_104_out1  $end
$var wire      1 o    dut_Equal_3Ux2U_1U_4_103_out1  $end
$var reg       3 p    dut_N_Mux_3_2_1_4_97_in3 [2:0] $end
$var wire      1 q    dut_LessThan_8Ux8U_1U_4_96_out1  $end
$var reg       8 r    dut_N_Mux_8_8_0_4_95_out1 [7:0] $end
$var reg       3 s    dut_N_Mux_8_8_0_4_95_ctrl1 [2:0] $end
$var reg       8 t    dut_N_Mux_8_8_0_4_94_out1 [7:0] $end
$var reg       3 u    dut_N_Mux_8_8_0_4_94_ctrl1 [2:0] $end
$var reg       8 v    dut_N_Mux_8_8_0_4_94_in2 [7:0] $end
$var reg       8 w    dut_N_Mux_8_8_0_4_94_in3 [7:0] $end
$var reg       8 x    dut_N_Mux_8_8_0_4_94_in4 [7:0] $end
$var reg       8 y    dut_N_Mux_8_8_0_4_94_in5 [7:0] $end
$var reg       8 z    dut_N_Mux_8_8_0_4_94_in6 [7:0] $end
$var reg       8 {    dut_N_Mux_8_8_0_4_94_in7 [7:0] $end
$var reg       8 |    dut_N_Mux_8_8_0_4_94_in8 [7:0] $end
$var reg       8 }    dut_N_Mux_8_8_0_4_94_in9 [7:0] $end
$var reg       1 ~    gs_ctrl104  $end
$var wire      1 !!   dut_OrReduction_3U_1U_4_85_out1  $end
$var wire      1 "!   dut_Equal_3Ux1U_1U_4_84_out1  $end
$var wire      1 #!   dut_Equal_3Ux2U_1U_4_83_out1  $end
$var reg       3 $!   dut_N_Mux_3_2_1_4_76_in3 [2:0] $end
$var wire      1 %!   dut_LessThan_8Ux8U_1U_4_75_out1  $end
$var reg       8 &!   dut_N_Mux_8_8_0_4_74_out1 [7:0] $end
$var reg       3 '!   dut_N_Mux_8_8_0_4_74_ctrl1 [2:0] $end
$var reg       8 (!   dut_N_Mux_8_8_0_4_73_out1 [7:0] $end
$var reg       3 )!   dut_N_Mux_8_8_0_4_73_ctrl1 [2:0] $end
$var reg       8 *!   dut_N_Mux_8_8_0_4_73_in2 [7:0] $end
$var reg       8 +!   dut_N_Mux_8_8_0_4_73_in3 [7:0] $end
$var reg       8 ,!   dut_N_Mux_8_8_0_4_73_in4 [7:0] $end
$var reg       8 -!   dut_N_Mux_8_8_0_4_73_in5 [7:0] $end
$var reg       8 .!   dut_N_Mux_8_8_0_4_73_in6 [7:0] $end
$var reg       8 /!   dut_N_Mux_8_8_0_4_73_in7 [7:0] $end
$var reg       8 0!   dut_N_Mux_8_8_0_4_73_in8 [7:0] $end
$var reg       8 1!   dut_N_Mux_8_8_0_4_73_in9 [7:0] $end
$var reg       1 2!   gs_ctrl84  $end
$var wire      1 3!   dut_OrReduction_3U_1U_4_64_out1  $end
$var wire      1 4!   dut_Equal_3Ux1U_1U_4_63_out1  $end
$var wire      1 5!   dut_Equal_3Ux2U_1U_4_62_out1  $end
$var reg       3 6!   dut_N_Mux_3_2_1_4_55_in3 [2:0] $end
$var wire      1 7!   dut_LessThan_8Ux8U_1U_4_54_out1  $end
$var reg       8 8!   dut_N_Mux_8_8_0_4_53_out1 [7:0] $end
$var reg       3 9!   dut_N_Mux_8_8_0_4_53_ctrl1 [2:0] $end
$var reg       8 :!   dut_N_Mux_8_8_0_4_52_out1 [7:0] $end
$var reg       3 ;!   dut_N_Mux_8_8_0_4_52_ctrl1 [2:0] $end
$var reg       8 <!   dut_N_Mux_8_8_0_4_52_in2 [7:0] $end
$var reg       8 =!   dut_N_Mux_8_8_0_4_52_in3 [7:0] $end
$var reg       8 >!   dut_N_Mux_8_8_0_4_52_in4 [7:0] $end
$var reg       8 ?!   dut_N_Mux_8_8_0_4_52_in5 [7:0] $end
$var reg       8 @!   dut_N_Mux_8_8_0_4_52_in6 [7:0] $end
$var reg       8 A!   dut_N_Mux_8_8_0_4_52_in7 [7:0] $end
$var reg       8 B!   dut_N_Mux_8_8_0_4_52_in8 [7:0] $end
$var reg       8 C!   dut_N_Mux_8_8_0_4_52_in9 [7:0] $end
$var reg       1 D!   gs_ctrl64  $end
$var wire      1 E!   dut_OrReduction_3U_1U_4_43_out1  $end
$var wire      1 F!   dut_Equal_3Ux2U_1U_4_42_out1  $end
$var wire      1 G!   dut_Equal_3Ux2U_1U_4_41_out1  $end
$var wire      1 H!   dut_Equal_3Ux3U_1U_4_40_out1  $end
$var wire      1 I!   dut_Equal_3Ux3U_1U_4_39_out1  $end
$var wire      1 J!   dut_Equal_3Ux3U_1U_4_38_out1  $end
$var wire      1 K!   dut_Equal_3Ux3U_1U_4_37_out1  $end
$var reg       3 L!   dut_N_Mux_3_2_1_4_34_in3 [2:0] $end
$var wire      1 M!   dut_LessThan_8Ux8U_1U_4_33_out1  $end
$var reg       8 N!   dut_N_Mux_8_8_0_4_32_out1 [7:0] $end
$var reg       3 O!   dut_N_Mux_8_8_0_4_32_ctrl1 [2:0] $end
$var reg       2 P!   gs_ctrl61 [1:0] $end
$var reg       8 Q!   dut_N_Mux_8_8_0_4_31_out1 [7:0] $end
$var reg       3 R!   dut_N_Mux_8_8_0_4_31_ctrl1 [2:0] $end
$var reg       1 S!   gs_ctrl52  $end
$var reg       8 T!   dut_N_Mux_8_8_0_4_31_in2 [7:0] $end
$var reg       8 U!   dut_N_Mux_8_8_0_4_31_in3 [7:0] $end
$var reg       8 V!   dut_N_Mux_8_8_0_4_31_in4 [7:0] $end
$var reg       8 W!   dut_N_Mux_8_8_0_4_31_in5 [7:0] $end
$var reg       8 X!   dut_N_Mux_8_8_0_4_31_in6 [7:0] $end
$var reg       8 Y!   dut_N_Mux_8_8_0_4_31_in7 [7:0] $end
$var reg       8 Z!   dut_N_Mux_8_8_0_4_31_in8 [7:0] $end
$var reg       8 [!   dut_N_Mux_8_8_0_4_31_in9 [7:0] $end
$var reg       1 \!   gs_ctrl44  $end
$var reg       8 ]!   dut_N_Mux_8_8_0_4_22_out1 [7:0] $end
$var wire      1 ^!   dut_Equal_3Ux1U_1U_4_21_out1  $end
$var wire      1 _!   dut_Equal_3Ux2U_1U_4_20_out1  $end
$var wire      1 `!   dut_Equal_3Ux2U_1U_4_19_out1  $end
$var wire      1 a!   dut_Equal_3Ux3U_1U_4_18_out1  $end
$var wire      1 b!   dut_Equal_3Ux3U_1U_4_17_out1  $end
$var wire      1 c!   dut_Equal_3Ux3U_1U_4_16_out1  $end
$var wire      1 d!   dut_Equal_3Ux3U_1U_4_15_out1  $end
$var wire      1 e!   dut_OrReduction_3U_1U_4_14_out1  $end
$var reg       3 f!   dut_N_Mux_3_2_1_4_13_in3 [2:0] $end
$var reg       3 g!   dut_Add_3Ux2S_5S_4_11_in2 [2:0] $end
$var reg       2 h!   gs_ctrl18 [1:0] $end
$var wire      1 i!   dut_LessThan_8Ux8U_1U_4_10_out1  $end
$var reg       8 j!   dut_N_Mux_8_8_0_4_9_out1 [7:0] $end
$var reg       3 k!   dut_N_Mux_8_8_0_4_9_ctrl1 [2:0] $end
$var reg       8 l!   dut_N_Mux_8_8_0_4_8_out1 [7:0] $end
$var reg       3 m!   dut_N_Mux_8_8_0_4_8_ctrl1 [2:0] $end
$var reg       8 n!   dut_N_Mux_8_8_0_4_8_in2 [7:0] $end
$var reg       8 o!   dut_N_Mux_8_8_0_4_8_in3 [7:0] $end
$var reg       8 p!   dut_N_Mux_8_8_0_4_8_in4 [7:0] $end
$var reg       8 q!   dut_N_Mux_8_8_0_4_8_in5 [7:0] $end
$var reg       8 r!   dut_N_Mux_8_8_0_4_8_in6 [7:0] $end
$var reg       8 s!   dut_N_Mux_8_8_0_4_8_in7 [7:0] $end
$var reg       8 t!   dut_N_Mux_8_8_0_4_8_in8 [7:0] $end
$var reg       8 u!   dut_N_Mux_8_8_0_4_8_in9 [7:0] $end
$var reg       1 v!   gs_ctrl0  $end
$var reg       3 w!   s_reg_152_slice [2:0] $end
$var reg       3 x!   dut_N_Mux_3_2_1_4_13_out1 [2:0] $end
$var reg       3 y!   s_reg_151 [2:0] $end
$var reg       8 z!   dut_N_Mux_8_2_2_4_135_out1 [7:0] $end
$var reg       8 {!   dut_N_Mux_8_2_2_4_114_out1 [7:0] $end
$var reg       8 |!   dut_N_Mux_8_2_2_4_93_out1 [7:0] $end
$var reg       8 }!   dut_N_Mux_8_2_2_4_72_out1 [7:0] $end
$var reg       8 ~!   dut_N_Mux_8_2_2_4_51_out1 [7:0] $end
$var reg       8 !"   dut_N_Mux_8_2_2_4_30_out1 [7:0] $end
$var reg       8 ""   s_reg_150 [7:0] $end
$var reg       8 #"   dut_N_Mux_8_2_2_4_134_out1 [7:0] $end
$var reg       8 $"   dut_N_Mux_8_2_2_4_113_out1 [7:0] $end
$var reg       8 %"   dut_N_Mux_8_2_2_4_92_out1 [7:0] $end
$var reg       8 &"   dut_N_Mux_8_2_2_4_71_out1 [7:0] $end
$var reg       8 '"   dut_N_Mux_8_8_0_4_50_out1 [7:0] $end
$var reg       8 ("   dut_N_Mux_8_2_2_4_29_out1 [7:0] $end
$var reg       8 )"   s_reg_149 [7:0] $end
$var reg       8 *"   dut_N_Mux_8_2_2_4_133_out1 [7:0] $end
$var reg       8 +"   dut_N_Mux_8_2_2_4_112_out1 [7:0] $end
$var reg       8 ,"   dut_N_Mux_8_2_2_4_91_out1 [7:0] $end
$var reg       8 -"   dut_N_Mux_8_8_0_4_70_out1 [7:0] $end
$var reg       8 ."   dut_N_Mux_8_2_2_4_49_out1 [7:0] $end
$var reg       8 /"   dut_N_Mux_8_2_2_4_28_out1 [7:0] $end
$var reg       8 0"   s_reg_148 [7:0] $end
$var reg       8 1"   dut_N_Mux_8_2_2_4_132_out1 [7:0] $end
$var reg       8 2"   dut_N_Mux_8_2_2_4_111_out1 [7:0] $end
$var reg       8 3"   dut_N_Mux_8_8_0_4_90_out1 [7:0] $end
$var reg       8 4"   dut_N_Mux_8_2_2_4_69_out1 [7:0] $end
$var reg       8 5"   dut_N_Mux_8_2_2_4_48_out1 [7:0] $end
$var reg       8 6"   dut_N_Mux_8_2_2_4_27_out1 [7:0] $end
$var reg       8 7"   s_reg_147 [7:0] $end
$var reg       8 8"   dut_N_Mux_8_2_2_4_131_out1 [7:0] $end
$var reg       8 9"   dut_N_Mux_8_8_0_4_110_out1 [7:0] $end
$var reg       8 :"   dut_N_Mux_8_2_2_4_89_out1 [7:0] $end
$var reg       8 ;"   dut_N_Mux_8_2_2_4_68_out1 [7:0] $end
$var reg       8 <"   dut_N_Mux_8_2_2_4_47_out1 [7:0] $end
$var reg       8 ="   dut_N_Mux_8_2_2_4_26_out1 [7:0] $end
$var reg       8 >"   s_reg_146 [7:0] $end
$var reg       8 ?"   dut_N_Mux_8_8_0_4_130_out1 [7:0] $end
$var reg       8 @"   dut_N_Mux_8_2_2_4_109_out1 [7:0] $end
$var reg       8 A"   dut_N_Mux_8_2_2_4_88_out1 [7:0] $end
$var reg       8 B"   dut_N_Mux_8_2_2_4_67_out1 [7:0] $end
$var reg       8 C"   dut_N_Mux_8_2_2_4_46_out1 [7:0] $end
$var reg       8 D"   dut_N_Mux_8_2_2_4_25_out1 [7:0] $end
$var reg       8 E"   s_reg_145 [7:0] $end
$var reg       8 F"   dut_N_Mux_8_2_2_4_129_out1 [7:0] $end
$var reg       8 G"   dut_N_Mux_8_2_2_4_108_out1 [7:0] $end
$var reg       8 H"   dut_N_Mux_8_2_2_4_87_out1 [7:0] $end
$var reg       8 I"   dut_N_Mux_8_2_2_4_66_out1 [7:0] $end
$var reg       8 J"   dut_N_Mux_8_2_2_4_45_out1 [7:0] $end
$var reg       8 K"   dut_N_Mux_8_2_2_4_24_out1 [7:0] $end
$var reg       8 L"   s_reg_144 [7:0] $end
$var reg       8 M"   dut_N_Mux_8_2_2_4_128_out1 [7:0] $end
$var reg       8 N"   dut_N_Mux_8_2_2_4_107_out1 [7:0] $end
$var reg       8 O"   dut_N_Mux_8_2_2_4_86_out1 [7:0] $end
$var reg       8 P"   dut_N_Mux_8_2_2_4_65_out1 [7:0] $end
$var reg       8 Q"   dut_N_Mux_8_2_2_4_44_out1 [7:0] $end
$var reg       8 R"   dut_N_Mux_8_2_2_4_23_out1 [7:0] $end
$var reg       8 S"   s_reg_143 [7:0] $end
$var wire      5 T"   dut_Add_3Ux2S_5S_4_11_out1 [4:0] $end
$var reg       3 U"   s_reg_142_slice [2:0] $end
$var reg       3 V"   dut_N_Mux_3_2_1_4_139_out1 [2:0] $end
$var reg       3 W"   dut_N_Mux_3_2_1_4_118_out1 [2:0] $end
$var reg       3 X"   dut_N_Mux_3_2_1_4_97_out1 [2:0] $end
$var reg       3 Y"   dut_N_Mux_3_2_1_4_76_out1 [2:0] $end
$var reg       3 Z"   dut_N_Mux_3_2_1_4_55_out1 [2:0] $end
$var reg       3 ["   dut_N_Mux_3_2_1_4_34_out1 [2:0] $end
$var reg       3 \"   s_reg_141 [2:0] $end
$var wire      3 ]"   dut_gen_busy_r_1_2_out1 [2:0] $end
$var wire      1 ^"   dut_And_1Ux1U_1U_1_6_out1  $end
$var wire      1 _"   dut_Not_1U_1U_1_7_out1  $end
$var wire      1 `"   dut_LessThan_5Sx5S_1U_4_12_out1  $end
$var reg       1 a"   dout_m_req_m_trig_req  $end
$var reg       5 b"   global_state [4:0] $end
$var reg       1 c"   din_m_busy_req_0  $end
$var reg       8 d"   dut_N_Mux_8_2_2_4_149_out1 [7:0] $end
$var reg       8 e"   dut_N_Mux_8_8_0_4_150_out1 [7:0] $end
$var reg       8 f"   dut_N_Mux_8_2_2_4_151_out1 [7:0] $end
$var reg       8 g"   dut_N_Mux_8_2_2_4_152_out1 [7:0] $end
$var reg       8 h"   dut_N_Mux_8_2_2_4_153_out1 [7:0] $end
$var reg       8 i"   dut_N_Mux_8_2_2_4_154_out1 [7:0] $end
$var reg       8 j"   dut_N_Mux_8_2_2_4_155_out1 [7:0] $end
$var reg       8 k"   dut_N_Mux_8_2_2_4_156_out1 [7:0] $end
$var reg      64 l"   dout_data_slice [63:0] $end
$var reg       1 m"   stall0  $end
$upscope $end

$upscope $end

$upscope $end

$enddefinitions $end
$dumpvars
1!
0"
1#
0$
b0 %
b0 &
b0 '
b0 (
b0 )
b0 *
b0 +
b0 ,
1-
0.
b0xxxxxxxx000000000000000000000000xxxxxxxx000000000000000000000000xxxxxxxx000000000000000000000000xxxxxxxx000000000000000000000000xxxxxxxx000000000000000000000000xxxxxxxx000000000000000000000000xxxxxxxx000000000000000000000000xxxxxxxx /
10
01
02
b0 3
b0 4
b0 5
b0 6
b0 7
b0 8
b0 9
b0 :
1;
0<
0=
0>
0?
1@
1A
1B
0C
1D
b1 E
xF
xG
xH
xI
b110 J
xK
bx L
b111 M
bx N
b110 O
bx P
bx Q
bx R
bx S
bx T
bx U
bx V
bx W
0X
xY
xZ
x[
x\
b101 ]
x^
bx _
b110 `
bx a
b101 b
bx c
bx d
bx e
bx f
bx g
bx h
bx i
bx j
0k
xl
xm
xn
xo
b100 p
xq
bx r
b101 s
bx t
b100 u
bx v
bx w
bx x
bx y
bx z
bx {
bx |
bx }
0~
x!!
x"!
x#!
b11 $!
x%!
bx &!
b100 '!
bx (!
b11 )!
bx *!
bx +!
bx ,!
bx -!
bx .!
bx /!
bx 0!
bx 1!
02!
x3!
x4!
x5!
b10 6!
x7!
bx 8!
b11 9!
bx :!
b10 ;!
bx <!
bx =!
bx >!
bx ?!
bx @!
bx A!
bx B!
bx C!
0D!
xE!
xF!
xG!
xH!
xI!
xJ!
xK!
b1 L!
0M!
b0 N!
b10 O!
b0 P!
b0 Q!
b1 R!
0S!
b0 T!
b0 U!
b0 V!
b0 W!
b0 X!
b0 Y!
b0 Z!
b0 [!
0\!
b0 ]!
0^!
0_!
0`!
0a!
0b!
0c!
0d!
0e!
b0 f!
b1 g!
b0 h!
0i!
b0 j!
b1 k!
b0 l!
b0 m!
b0 n!
b0 o!
b0 p!
b0 q!
b0 r!
b0 s!
b0 t!
b0 u!
0v!
bx w!
b0 x!
bx y!
bx z!
bx {!
bx |!
bx }!
bx ~!
b0 !"
bx ""
bx #"
bx $"
bx %"
bx &"
bx '"
b0 ("
bx )"
bx *"
bx +"
bx ,"
bx -"
bx ."
b0 /"
bx 0"
bx 1"
bx 2"
bx 3"
bx 4"
bx 5"
b0 6"
bx 7"
bx 8"
bx 9"
bx :"
bx ;"
bx <"
b0 ="
bx >"
bx ?"
bx @"
bx A"
bx B"
bx C"
b0 D"
bx E"
bx F"
bx G"
bx H"
bx I"
bx J"
b0 K"
bx L"
bx M"
bx N"
bx O"
bx P"
bx Q"
b0 R"
bx S"
b10 T"
bx U"
b110 V"
b101 W"
b100 X"
b11 Y"
b10 Z"
b1 ["
bx \"
b101 ]"
0^"
1_"
1`"
0a"
b0 b"
1c"
bx d"
bx e"
bx f"
bx g"
bx h"
bx i"
bx j"
bx k"
bx l"
0m"
$end
#5000
0!
00
#10000
1!
10
0-
0;
#15000
0!
00
#20000
1!
10
1"
11
#25000
0!
00
#30000
1!
10
b1 b"
0c"
1m"
b10 E
0@
0B
b1 ]"
0#
1$
b1010110 %
b11 &
b1010 '
b111101 (
b100001 )
b1010110 *
b111011 +
b11001 ,
b11001 :
b111011 9
b1010110 8
b100001 7
b111101 6
b1010 5
b11 4
b1010110 3
12
1C
0D
b11001 u!
b111011 t!
b1010110 s!
b100001 r!
b111101 q!
b1010 p!
b11 o!
b1010110 n!
1@
b1010110 l!
b11 j!
b1010110 ]!
b11001 R"
b111011 K"
b1010110 D"
b100001 ="
b111101 6"
b1010 /"
b11 ("
b1010110 !"
b11001 [!
b111011 Z!
b1010110 Y!
b100001 X!
b111101 W!
b1010 V!
b11 U!
b1010110 T!
b11 Q!
b1010 N!
1i!
b10 ]"
b1 x!
0m"
b11 ]!
1^!
1e!
b1010110 ("
b11 !"
b1010110 U!
b11 T!
b1010110 Q!
1M!
b10 ["
#35000
0!
00
#40000
1!
10
b10 b"
b11001 ""
b111011 )"
b1010110 0"
b100001 7"
b111101 >"
b1010 E"
b11 L"
b1010110 S"
b10 U"
b1 y!
b1 \"
1c"
b10 w!
b11 E
b111011 '"
b111011 -"
b111011 3"
b111011 9"
b111011 ?"
b111011 e"
b111011 ~!
b111011 <!
b1010110 }!
b1010110 *!
b100001 |!
b100001 v
b111101 {!
b111101 c
b1010 z!
b1010 P
b11 k"
b1010110 Q"
b11 J"
b1010 C"
b111101 <"
b100001 5"
b1010110 ."
b111011 =!
b111011 &"
b111011 +!
b111011 %"
b111011 w
b111011 $"
b111011 d
b111011 #"
b111011 Q
b111011 j"
b1010110 >!
b1010110 P"
b11 I"
b1010 B"
b111101 ;"
b100001 4"
b111011 ,!
b1010110 ,"
b1010110 x
b1010110 +"
b1010110 e
b1010110 *"
b1010110 R
b1010110 i"
b100001 ?!
b100001 -!
b1010110 O"
b11 H"
b1010 A"
b111101 :"
b111011 y
b100001 2"
b100001 f
b100001 1"
b100001 S
b100001 h"
b111101 @!
b111101 .!
b111101 z
b1010110 N"
b11 G"
b1010 @"
b111011 g
b111101 8"
b111101 T
b111101 g"
b1010 A!
b1010 /!
b1010 {
b1010 h
b1010110 M"
b11 F"
b111011 U
b1010 f"
b11 B!
b11 0!
b11 |
b11 i
b11 V
b1010110 d"
b1010110 C!
b1010110 1!
b1010110 }
b1010110 j
b1010110 W
b1010110 :!
b100001 8!
b100001 (!
b111101 &!
b111101 t
b1010 r
b1010 a
b11 _
b11 N
b1010110 L
0K
1^
1q
0%!
17!
1B
1F
1G
0H
0I
1Y
1Z
0[
0\
1l
1m
0n
0o
1!!
1"!
0#!
13!
14!
05!
1E!
0F!
0G!
0H!
0I!
0J!
0K!
0C
1D
b110 W"
b101 X"
b11 Z"
b11001 k"
b11 j"
b11001 z!
b1010 #"
b11001 {!
b111101 $"
b11001 |!
b100001 %"
b11001 }!
b1010110 &"
b11001 ~!
b11001 P
b1010 Q
b11001 c
b111101 d
b11001 v
b100001 w
b11001 *!
b1010110 +!
b11001 <!
b101 ]"
1#
b110010 %
b1011100 &
b10100 '
b1001010 (
b1000111 )
b100111 *
b1001101 +
b1010 ,
b1010 :
b1001101 9
b100111 8
b1000111 7
b1001010 6
b10100 5
b1011100 4
b110010 3
b1010 u!
b1001101 t!
b100111 s!
b1000111 r!
b1001010 q!
b10100 p!
b1011100 o!
b110010 n!
b110010 l!
b1011100 j!
b1011100 ]!
b1010 R"
b1001101 K"
b100111 D"
b1000111 ="
b1001010 6"
b10100 /"
b110010 ("
b1011100 !"
b1010 [!
b1001101 Z!
b100111 Y!
b1000111 X!
b1001010 W!
b10100 V!
b110010 U!
b1011100 T!
b110010 Q!
b10100 N!
0i!
b0 x!
b110010 ]!
b110010 !"
b110010 T!
0^!
0e!
b1011100 ("
b1011100 U!
b1011100 Q!
#45000
0!
00
#50000
1!
10
b11 b"
1v!
b1 h!
1S!
b1 P!
b101011000111011000010100011110100100001010101100000001100011001 l"
b10 E
b11001 u!
b111011 t!
b1010110 s!
b100001 r!
b111101 q!
b1010 p!
b11 o!
b1010110 n!
b1 m!
b1 f!
b10 k!
b10 g!
b11 l!
b1010 j!
b1010110 ]!
b11001 R"
b111011 K"
b1010110 D"
b100001 ="
b111101 6"
b1010 /"
b11 ("
b1010110 !"
b1 x!
b11001 [!
b111011 Z!
b1010110 Y!
b100001 X!
b111101 W!
b1010 V!
b11 U!
b1010110 T!
b11 ]!
b11 Q!
b1010 N!
0M!
1^!
1e!
b11 T"
b101011000000000000000000000000000111011000000000000000000000000000010100000000000000000000000000011110100000000000000000000000000100001000000000000000000000000010101100000000000000000000000000000001100000000000000000000000000011001 /
b1 ["
b1010110 ("
b11 !"
b1010110 U!
b11 T!
b1010110 Q!
1M!
b10 ["
#55000
0!
00
#60000
1!
10
b10 b"
0v!
b0 h!
0S!
b0 P!
b11 w!
b11 E
b1010 u!
b1001101 t!
b100111 s!
b1000111 r!
b1001010 q!
b10100 p!
b1011100 o!
b110010 n!
b0 m!
b0 f!
b1 k!
b1 g!
b110010 l!
b1011100 j!
b1011100 ]!
b1010 R"
b1001101 K"
b100111 D"
b1000111 ="
b1001010 6"
b10100 /"
b110010 ("
b1011100 !"
b0 x!
b1010 [!
b1001101 Z!
b100111 Y!
b1000111 X!
b1001010 W!
b10100 V!
b110010 U!
b1011100 T!
b110010 ]!
b110010 Q!
b10100 N!
b110010 !"
b110010 T!
0^!
0e!
b10 T"
b1011100 ("
b1011100 U!
b1011100 Q!
#65000
0!
00
#70000
1!
10
b11 b"
1v!
b1 h!
1S!
b1 P!
b10 E
b11001 u!
b111011 t!
b1010110 s!
b100001 r!
b111101 q!
b1010 p!
b11 o!
b1010110 n!
b1 m!
b1 f!
b11 k!
b11 g!
b11 l!
b111101 j!
b1010110 ]!
b11001 R"
b111011 K"
b1010110 D"
b100001 ="
b111101 6"
b1010 /"
b11 ("
b1010110 !"
b1 x!
b11001 [!
b111011 Z!
b1010110 Y!
b100001 X!
b111101 W!
b1010 V!
b11 U!
b1010110 T!
b11 ]!
b11 Q!
b1010 N!
0M!
1^!
1e!
b100 T"
b1 ["
b1010110 ("
b11 !"
b1010110 U!
b11 T!
b1010110 Q!
1M!
b10 ["
#75000
0!
00
#80000
1!
10
b10 b"
0v!
b0 h!
0S!
b0 P!
b100 w!
b11 E
b1010 u!
b1001101 t!
b100111 s!
b1000111 r!
b1001010 q!
b10100 p!
b1011100 o!
b110010 n!
b0 m!
b0 f!
b1 k!
b1 g!
b110010 l!
b1011100 j!
b1011100 ]!
b1010 R"
b1001101 K"
b100111 D"
b1000111 ="
b1001010 6"
b10100 /"
b110010 ("
b1011100 !"
b0 x!
b1010 [!
b1001101 Z!
b100111 Y!
b1000111 X!
b1001010 W!
b10100 V!
b110010 U!
b1011100 T!
b110010 ]!
b110010 Q!
b10100 N!
b110010 !"
b110010 T!
0^!
0e!
b10 T"
b1011100 ("
b1011100 U!
b1011100 Q!
#85000
0!
00
#90000
1!
10
b11 b"
1v!
b1 h!
1S!
b1 P!
b10 E
b11001 u!
b111011 t!
b1010110 s!
b100001 r!
b111101 q!
b1010 p!
b11 o!
b1010110 n!
b1 m!
b1 f!
b100 k!
b100 g!
b11 l!
b100001 j!
b1010110 ]!
b11001 R"
b111011 K"
b1010110 D"
b100001 ="
b111101 6"
b1010 /"
b11 ("
b1010110 !"
b1 x!
b11001 [!
b111011 Z!
b1010110 Y!
b100001 X!
b111101 W!
b1010 V!
b11 U!
b1010110 T!
b11 ]!
b11 Q!
b1010 N!
0M!
1^!
1e!
b101 T"
b1 ["
b1010110 ("
b11 !"
b1010110 U!
b11 T!
b1010110 Q!
1M!
b10 ["
#95000
0!
00
