HLS/bdw_work/sims/PIPELINE_V/verilog.vcd
$date
    Apr 17, 2022  22:12:23
$end
$version
    TOOL:	ncsim(64)	15.20-s084
$end
$timescale
    1 ps
$end

$scope module top $end

$scope module dut0 $end
$var reg       1 !    clk  $end
$var reg       1 "    rst  $end
$var wire      1 #    din_busy  $end
$var reg       1 $    din_vld  $end
$var reg       8 %    din_data_a [7:0] $end
$var reg       8 &    din_data_b [7:0] $end
$var reg       8 '    din_data_c [7:0] $end
$var reg       8 (    din_data_d [7:0] $end
$var reg       8 )    din_data_e [7:0] $end
$var reg       8 *    din_data_f [7:0] $end
$var reg       8 +    din_data_g [7:0] $end
$var reg       8 ,    din_data_h [7:0] $end
$var reg       1 -    dout_busy  $end
$var wire      1 .    dout_vld  $end
$var wire     256 /    dout_data [255:0] $end

$scope module dut0 $end
$var wire      1 0    clk  $end
$var wire      1 1    rst  $end
$var wire      1 2    din_vld  $end
$var wire      8 3    din_data_a [7:0] $end
$var wire      8 4    din_data_b [7:0] $end
$var wire      8 5    din_data_c [7:0] $end
$var wire      8 6    din_data_d [7:0] $end
$var wire      8 7    din_data_e [7:0] $end
$var wire      8 8    din_data_f [7:0] $end
$var wire      8 9    din_data_g [7:0] $end
$var wire      8 :    din_data_h [7:0] $end
$var wire      1 ;    dout_busy  $end
$var wire      1 #    din_busy  $end
$var wire      1 .    dout_vld  $end
$var reg      256 <    dout_data [255:0] $end
$var reg       1 =    dout_m_req_m_prev_trig_req  $end
$var reg       1 >    dout_m_unacked_req  $end
$var wire      1 ?    dut_Xor_1Ux1U_1U_1_4_out1  $end
$var wire      1 @    dut_Or_1Ux1U_1U_4_5_out1  $end
$var reg       1 A    dut_N_Muxb_1_2_1_4_1_out1  $end
$var reg       1 B    din_m_unvalidated_req  $end
$var wire      1 C    dut_gen_busy_r_1_2_gnew_req  $end
$var wire      1 D    dut_gen_busy_r_1_2_gdiv  $end
$var wire      1 E    dut_gen_busy_r_1_2_gen_busy_din_m_data_is_invalid_next  $end
$var reg       5 F    global_state_next [4:0] $end
$var wire      1 G    dut_LessThan_32Ux32U_1U_4_12_out1  $end
$var reg       3 H    dut_Add_3Ux2S_5S_4_8_in2 [2:0] $end
$var reg       1 I    gs_ctrl4  $end
$var reg       1 J    gs_ctrl3  $end
$var wire      1 K    dut_LessThan_5Sx5S_1U_4_9_out1  $end
$var reg       2 L    gs_ctrl2 [1:0] $end
$var reg       4 M    gs_ctrl1 [3:0] $end
$var reg       4 N    gs_ctrl0 [3:0] $end
$var wire      1 O    dut_LessThan_33Sx33S_1U_4_11_out1  $end
$var wire     32 P    dut_Add_32Sx2S_32S_4_10_out1 [31:0] $end
$var wire      5 Q    dut_Add_3Ux2S_5S_4_8_out1 [4:0] $end
$var reg       3 R    dut_N_Mux_3_2_0_4_13_out1 [2:0] $end
$var reg       3 S    s_reg_42 [2:0] $end
$var wire      1 T    dut_LessThan_5Sx4S_1U_4_15_out1  $end
$var reg       1 U    s_reg_41  $end
$var wire      5 V    dut_Add_3Ux2S_5S_4_14_out1 [4:0] $end
$var reg       1 W    s_reg_45  $end
$var reg       8 X    s_reg_40 [7:0] $end
$var reg       8 Y    s_reg_39 [7:0] $end
$var reg       8 Z    s_reg_38 [7:0] $end
$var reg       8 [    s_reg_37 [7:0] $end
$var reg       8 \    s_reg_36 [7:0] $end
$var reg       8 ]    s_reg_35 [7:0] $end
$var reg       8 ^    s_reg_34 [7:0] $end
$var wire      3 _    dut_gen_busy_r_1_2_out1 [2:0] $end
$var wire      1 `    dut_And_1Ux1U_1U_1_6_out1  $end
$var wire      1 a    dut_Not_1U_1U_1_7_out1  $end
$var reg       1 b    dout_m_req_m_trig_req  $end
$var reg       5 c    global_state [4:0] $end
$var reg       1 d    din_m_busy_req_0  $end
$var reg      32 e    s_reg_50 [31:0] $end
$var reg      32 f    s_reg_49 [31:0] $end
$var reg      32 g    s_reg_48 [31:0] $end
$var reg      32 h    s_reg_47 [31:0] $end
$var reg      32 i    s_reg_44 [31:0] $end
$var reg      32 j    s_reg_43 [31:0] $end
$var reg      32 k    s_reg_46 [31:0] $end
$var reg       1 l    stall0  $end
$var reg      32 m    arr_DIN [31:0] $end
$var reg       1 n    arr_CE  $end
$var reg       1 o    arr_RW  $end
$var reg       3 p    arr_in1 [2:0] $end
$var wire     32 q    arr_out1 [31:0] $end

$scope module arr $end
$var wire     32 r    DIN [31:0] $end
$var wire      1 s    CE  $end
$var wire      1 t    RW  $end
$var wire      3 u    in1 [2:0] $end
$var wire      1 0    clk  $end
$var reg      32 v    out1 [31:0] $end
$upscope $end

$upscope $end

$upscope $end

$upscope $end

$enddefinitions $end
$dumpvars
1!
0"
1#
0$
b0 %
b0 &
b0 '
b0 (
b0 )
b0 *
b0 +
b0 ,
1-
0.
bx /
10
01
02
b0 3
b0 4
b0 5
b0 6
b0 7
b0 8
b0 9
b0 :
1;
bx <
0=
0>
0?
0@
1A
1B
1C
0D
1E
b1 F
xG
b0 H
0I
0J
1K
b0 L
b0 M
b0 N
xO
bx P
b1 Q
bx R
bx S
xT
xU
bx V
xW
bx X
bx Y
bx Z
bx [
bx \
bx ]
bx ^
b101 _
0`
1a
0b
b0 c
1d
bx e
bx f
bx g
bx h
bx i
bx j
bx k
0l
b0 m
0n
0o
b0 p
b0 q
b0 r
0s
0t
b0 u
b0 v
$end
#5000
0!
00
#10000
1!
10
b0 e
b0xxxxxxxxxxxxxxxxxxxxxxxxxxxxxxxxxxxxxxxxxxxxxxxxxxxxxxxxxxxxxxxxxxxxxxxxxxxxxxxxxxxxxxxxxxxxxxxxxxxxxxxxxxxxxxxxxxxxxxxxxxxxxxxxxxxxxxxxxxxxxxxxxxxxxxxxxxxxxxxxxxxxxxxxxxxxxxxxxxxxxxxxxxxxxxxxxxxxxxxxxxxxxxxxxxxxxxxxxxxxxxxx <
b0xxxxxxxxxxxxxxxxxxxxxxxxxxxxxxxxxxxxxxxxxxxxxxxxxxxxxxxxxxxxxxxxxxxxxxxxxxxxxxxxxxxxxxxxxxxxxxxxxxxxxxxxxxxxxxxxxxxxxxxxxxxxxxxxxxxxxxxxxxxxxxxxxxxxxxxxxxxxxxxxxxxxxxxxxxxxxxxxxxxxxxxxxxxxxxxxxxxxxxxxxxxxxxxxxxxxxxxxxxxxxxxx /
0-
0;
#15000
0!
00
#20000
1!
10
b0xxxxxxxxxxxxxxxxxxxxxxxxxxxxxxxxxxxxxxxxxxxxxxxxxxxxxxxxxxxxxxxxxxxxxxxxxxxxxxxxxxxxxxxxxxxxxxxxxxxxxxxxxxxxxxxxxxxxxxxxxxxxxxxxxxxxxxxxxxxxxxxxxxxxxxxxxxxxxxxxxxxxxxxxxxxxxxxxxxxxxxxxxxxxxxxx <
b0xxxxxxxxxxxxxxxxxxxxxxxxxxxxxxxxxxxxxxxxxxxxxxxxxxxxxxxxxxxxxxxxxxxxxxxxxxxxxxxxxxxxxxxxxxxxxxxxxxxxxxxxxxxxxxxxxxxxxxxxxxxxxxxxxxxxxxxxxxxxxxxxxxxxxxxxxxxxxxxxxxxxxxxxxxxxxxxxxxxxxxxxxxxxxxxx /
1"
11
#25000
0!
00
#30000
1!
10
b1 c
b1 L
1J
0d
1l
b10 F
0A
0C
b1 _
0#
1$
b1010110 %
b11 &
b1010 '
b111101 (
b100001 )
b1010110 *
b111011 +
b11001 ,
b11001 :
b111011 9
b1010110 8
b100001 7
b111101 6
b1010 5
b11 4
b1010110 3
12
1D
0E
b1010110 m
1A
b1010110 r
b10 _
0l
1n
1o
1t
1s
#35000
0!
00
#40000
1!
10
b10 c
b1 N
b1 M
b11 X
b111011 Z
b11001 Y
b111101 ]
b100001 \
b1010110 [
1d
b1010 ^
b11 F
b1 p
b11 m
b11 r
b1 u
1C
1T
b100 V
0D
1E
b101 _
1#
b110010 %
b1011100 &
b10100 '
b1001010 (
b1000111 )
b100111 *
b1001101 +
b1010 ,
b1010 :
b1001101 9
b100111 8
b1000111 7
b1001010 6
b10100 5
b1011100 4
b110010 3
#45000
0!
00
#50000
1!
10
b11 c
b10 N
b10 M
1U
b100 F
b10 p
b1010 m
b1010 r
b10 u
#55000
0!
00
#60000
1!
10
b100 c
b11 N
b11 M
b101 F
b11 p
b111101 m
b111101 r
b11 u
#65000
0!
00
#70000
1!
10
b101 c
b100 N
b100 M
b110 F
b100 p
b100001 m
b100001 r
b100 u
#75000
0!
00
#80000
1!
10
b110 c
b101 N
b101 M
b111 F
b101 p
b1010110 m
b1010110 r
b101 u
#85000
0!
00
#90000
1!
10
b111 c
b110 N
b110 M
b1000 F
b110 p
b111011 m
b111011 r
b110 u
#95000
0!
00
#100000
1!
10
b1000 c
b111 N
b111 M
b1001 F
b111 p
b11001 m
b11001 r
b111 u
#105000
0!
00
#110000
1!
10
b1001 c
b0 N
b0 M
b10 L
0J
b1011 F
b0 p
b110010 m
0o
0t
b110010 r
b0 u
#115000
0!
00
#120000
1!
10
b1011 c
b1001 N
b1 L
b1 j
b0 X
b0 S
b1010110 v
b1100 F
b1 p
b0 R
b1 u
b1 V
b10 P
b1010110 q
1O
#125000
0!
00
#130000
1!
10
b1100 c
b1010 N
b1010110 e
b10 i
b1010110 k
1W
b101011000000000000000000000000000000000xxxxxxxxxxxxxxxxxxxxxxxxxxxxxxxxxxxxxxxxxxxxxxxxxxxxxxxxxxxxxxxxxxxxxxxxxxxxxxxxxxxxxxxxxxxxxxxxxxxxxxxxxxxxxxxxxxxxxxxxxxxxxxxx00000000000000000000000000000001xxxxxxxxxxxxxxxxxxxxxxxxxxxxxxxx <
b11 v
b1011 F
b0 p
b0 u
0G
b11 q
b101011000000000000000000000000000000000xxxxxxxxxxxxxxxxxxxxxxxxxxxxxxxxxxxxxxxxxxxxxxxxxxxxxxxxxxxxxxxxxxxxxxxxxxxxxxxxxxxxxxxxxxxxxxxxxxxxxxxxxxxxxxxxxxxxxxxxxxxxxxxx00000000000000000000000000000001xxxxxxxxxxxxxxxxxxxxxxxxxxxxxxxx /
1G
b1 R
b1 p
b1 u
#135000
0!
00
#140000
1!
10
b1011 c
b1001 N
b11 e
b10 j
b1 S
b1100000000000000000000000001010110xxxxxxxxxxxxxxxxxxxxxxxxxxxxxxxxxxxxxxxxxxxxxxxxxxxxxxxxxxxxxxxxxxxxxxxxxxxxxxxxxxxxxxxxxxxxxxxx000000000000000000000000000000100000000000000000000000000000000100000000000000000000000001010110 <
b1100 F
b10 p
b10 R
b10 u
b11 P
b1100000000000000000000000001010110xxxxxxxxxxxxxxxxxxxxxxxxxxxxxxxxxxxxxxxxxxxxxxxxxxxxxxxxxxxxxxxxxxxxxxxxxxxxxxxxxxxxxxxxxxxxxxxx000000000000000000000000000000100000000000000000000000000000000100000000000000000000000001010110 /
#145000
0!
00
#150000
1!
10
b1100 c
b1010 N
b11 i
b11 k
b1100000000000000000000000000000011xxxxxxxxxxxxxxxxxxxxxxxxxxxxxxxxxxxxxxxxxxxxxxxxxxxxxxxxxxxxxxxxxxxxxxxxxxxxxxxxxxxxxxxxxxxxxxxx000000000000000000000000000000100000000000000000000000000000001000000000000000000000000001010110 <
b1010 v
b1011 F
0G
b1010 q
b1100000000000000000000000000000011xxxxxxxxxxxxxxxxxxxxxxxxxxxxxxxxxxxxxxxxxxxxxxxxxxxxxxxxxxxxxxxxxxxxxxxxxxxxxxxxxxxxxxxxxxxxxxxx000000000000000000000000000000100000000000000000000000000000001000000000000000000000000001010110 /
b1 R
b1 p
b1 u
#155000
0!
00
#160000
1!
10
b1011 c
b1001 N
b1010 e
b11 j
b101000000000000000000000000000000011xxxxxxxxxxxxxxxxxxxxxxxxxxxxxxxxxxxxxxxxxxxxxxxxxxxxxxxxxxxxxxxxxxxxxxxxxxxxxxxxxxxxxxxxxxxxxxxx000000000000000000000000000000110000000000000000000000000000001000000000000000000000000000000011 <
b11 v
b1100 F
b11 p
b11 u
b100 P
b11 q
b101000000000000000000000000000000011xxxxxxxxxxxxxxxxxxxxxxxxxxxxxxxxxxxxxxxxxxxxxxxxxxxxxxxxxxxxxxxxxxxxxxxxxxxxxxxxxxxxxxxxxxxxxxxx000000000000000000000000000000110000000000000000000000000000001000000000000000000000000000000011 /
#165000
0!
00
#170000
1!
10
b1100 c
b1010 N
b11 e
b100 i
b1100000000000000000000000000001010xxxxxxxxxxxxxxxxxxxxxxxxxxxxxxxxxxxxxxxxxxxxxxxxxxxxxxxxxxxxxxxxxxxxxxxxxxxxxxxxxxxxxxxxxxxxxxxx000000000000000000000000000000110000000000000000000000000000001100000000000000000000000000000011 <
b111101 v
b1011 F
b1 p
b1 u
b111101 q
b1100000000000000000000000000001010xxxxxxxxxxxxxxxxxxxxxxxxxxxxxxxxxxxxxxxxxxxxxxxxxxxxxxxxxxxxxxxxxxxxxxxxxxxxxxxxxxxxxxxxxxxxxxxx000000000000000000000000000000110000000000000000000000000000001100000000000000000000000000000011 /
#175000
0!
00
#180000
1!
10
b1011 c
b1001 N
b111101 e
b100 j
b11110100000000000000000000000000000011xxxxxxxxxxxxxxxxxxxxxxxxxxxxxxxxxxxxxxxxxxxxxxxxxxxxxxxxxxxxxxxxxxxxxxxxxxxxxxxxxxxxxxxxxxxxxxxx000000000000000000000000000001000000000000000000000000000000001100000000000000000000000000000011 <
b11 v
b1100 F
b100 p
b100 u
b101 P
b11 q
b11110100000000000000000000000000000011xxxxxxxxxxxxxxxxxxxxxxxxxxxxxxxxxxxxxxxxxxxxxxxxxxxxxxxxxxxxxxxxxxxxxxxxxxxxxxxxxxxxxxxxxxxxxxxx000000000000000000000000000001000000000000000000000000000000001100000000000000000000000000000011 /
#185000
0!
00
#190000
1!
10
b1100 c
b1010 N
b11 e
b101 i
b1100000000000000000000000000111101xxxxxxxxxxxxxxxxxxxxxxxxxxxxxxxxxxxxxxxxxxxxxxxxxxxxxxxxxxxxxxxxxxxxxxxxxxxxxxxxxxxxxxxxxxxxxxxx000000000000000000000000000001000000000000000000000000000000010000000000000000000000000000000011 <
b100001 v
b1011 F
b1 p
b1 u
b100001 q
b1100000000000000000000000000111101xxxxxxxxxxxxxxxxxxxxxxxxxxxxxxxxxxxxxxxxxxxxxxxxxxxxxxxxxxxxxxxxxxxxxxxxxxxxxxxxxxxxxxxxxxxxxxxx000000000000000000000000000001000000000000000000000000000000010000000000000000000000000000000011 /
#195000
0!
00
#200000
1!
10
b1011 c
b1001 N
b100001 e
b101 j
b10000100000000000000000000000000000011xxxxxxxxxxxxxxxxxxxxxxxxxxxxxxxxxxxxxxxxxxxxxxxxxxxxxxxxxxxxxxxxxxxxxxxxxxxxxxxxxxxxxxxxxxxxxxxx000000000000000000000000000001010000000000000000000000000000010000000000000000000000000000000011 <
b11 v
b1100 F
b101 p
b101 u
b110 P
b11 q
b10000100000000000000000000000000000011xxxxxxxxxxxxxxxxxxxxxxxxxxxxxxxxxxxxxxxxxxxxxxxxxxxxxxxxxxxxxxxxxxxxxxxxxxxxxxxxxxxxxxxxxxxxxxxx000000000000000000000000000001010000000000000000000000000000010000000000000000000000000000000011 /
#205000
0!
00
#210000
1!
10
b1100 c
b1010 N
b11 e
b110 i
b1100000000000000000000000000100001xxxxxxxxxxxxxxxxxxxxxxxxxxxxxxxxxxxxxxxxxxxxxxxxxxxxxxxxxxxxxxxxxxxxxxxxxxxxxxxxxxxxxxxxxxxxxxxx000000000000000000000000000001010000000000000000000000000000010100000000000000000000000000000011 <
b1010110 v
b1011 F
b1 p
b1 u
b1010110 q
b1100000000000000000000000000100001xxxxxxxxxxxxxxxxxxxxxxxxxxxxxxxxxxxxxxxxxxxxxxxxxxxxxxxxxxxxxxxxxxxxxxxxxxxxxxxxxxxxxxxxxxxxxxxx000000000000000000000000000001010000000000000000000000000000010100000000000000000000000000000011 /
#215000
0!
00
#220000
1!
10
b1011 c
b1001 N
b1010110 e
b110 j
b101011000000000000000000000000000000011xxxxxxxxxxxxxxxxxxxxxxxxxxxxxxxxxxxxxxxxxxxxxxxxxxxxxxxxxxxxxxxxxxxxxxxxxxxxxxxxxxxxxxxxxxxxxxxx000000000000000000000000000001100000000000000000000000000000010100000000000000000000000000000011 <
b11 v
b1100 F
b110 p
b110 u
b111 P
b11 q
b101011000000000000000000000000000000011xxxxxxxxxxxxxxxxxxxxxxxxxxxxxxxxxxxxxxxxxxxxxxxxxxxxxxxxxxxxxxxxxxxxxxxxxxxxxxxxxxxxxxxxxxxxxxxx000000000000000000000000000001100000000000000000000000000000010100000000000000000000000000000011 /
#225000
0!
00
#230000
1!
10
b1100 c
b1010 N
b11 e
b111 i
b1100000000000000000000000001010110xxxxxxxxxxxxxxxxxxxxxxxxxxxxxxxxxxxxxxxxxxxxxxxxxxxxxxxxxxxxxxxxxxxxxxxxxxxxxxxxxxxxxxxxxxxxxxxx000000000000000000000000000001100000000000000000000000000000011000000000000000000000000000000011 <
b111011 v
b1011 F
b1 p
b1 u
b111011 q
b1100000000000000000000000001010110xxxxxxxxxxxxxxxxxxxxxxxxxxxxxxxxxxxxxxxxxxxxxxxxxxxxxxxxxxxxxxxxxxxxxxxxxxxxxxxxxxxxxxxxxxxxxxxx000000000000000000000000000001100000000000000000000000000000011000000000000000000000000000000011 /
#235000
0!
00
#240000
1!
10
b1011 c
b1001 N
b111011 e
b111 j
b11101100000000000000000000000000000011xxxxxxxxxxxxxxxxxxxxxxxxxxxxxxxxxxxxxxxxxxxxxxxxxxxxxxxxxxxxxxxxxxxxxxxxxxxxxxxxxxxxxxxxxxxxxxxx000000000000000000000000000001110000000000000000000000000000011000000000000000000000000000000011 <
b11 v
b1100 F
b111 p
b111 u
b1000 P
b11 q
b11101100000000000000000000000000000011xxxxxxxxxxxxxxxxxxxxxxxxxxxxxxxxxxxxxxxxxxxxxxxxxxxxxxxxxxxxxxxxxxxxxxxxxxxxxxxxxxxxxxxxxxxxxxxx000000000000000000000000000001110000000000000000000000000000011000000000000000000000000000000011 /
0O
#245000
0!
00
#250000
1!
10
b1100 c
b1010 N
b11 e
b1000 i
0W
b1100000000000000000000000000111011xxxxxxxxxxxxxxxxxxxxxxxxxxxxxxxxxxxxxxxxxxxxxxxxxxxxxxxxxxxxxxxxxxxxxxxxxxxxxxxxxxxxxxxxxxxxxxxx000000000000000000000000000001110000000000000000000000000000011100000000000000000000000000000011 <
b11001 v
b1101 F
b0 p
b0 u
b11001 q
b1100000000000000000000000000111011xxxxxxxxxxxxxxxxxxxxxxxxxxxxxxxxxxxxxxxxxxxxxxxxxxxxxxxxxxxxxxxxxxxxxxxxxxxxxxxxxxxxxxxxxxxxxxxx000000000000000000000000000001110000000000000000000000000000011100000000000000000000000000000011 /
#255000
0!
00
#260000
1!
10
b1101 c
b1011 N
b11001 e
b1000 j
b1100100000000000000000000000000000011xxxxxxxxxxxxxxxxxxxxxxxxxxxxxxxxxxxxxxxxxxxxxxxxxxxxxxxxxxxxxxxxxxxxxxxxxxxxxxxxxxxxxxxxxxxxxxxx000000000000000000000000000010000000000000000000000000000000011100000000000000000000000000000011 <
b1010110 v
b1110 F
b1 p
b1 u
b1001 P
b1010110 q
b1100100000000000000000000000000000011xxxxxxxxxxxxxxxxxxxxxxxxxxxxxxxxxxxxxxxxxxxxxxxxxxxxxxxxxxxxxxxxxxxxxxxxxxxxxxxxxxxxxxxxxxxxxxxx000000000000000000000000000010000000000000000000000000000000011100000000000000000000000000000011 /
#265000
0!
00
#270000
1!
10
b1110 c
b1000 N
b1000 M
1J
b1010110 e
b1010110 k
b101011000000000000000000000000000011001xxxxxxxxxxxxxxxxxxxxxxxxxxxxxxxxxxxxxxxxxxxxxxxxxxxxxxxxxxxxxxxxxxxxxxxxxxxxxxxxxxxxxxxxxxxxxxxx000000000000000000000000000010000000000000000000000000000000100000000000000000000000000000000011 <
b11 v
b1111 F
b0 p
b1010110 m
1o
1t
b1010110 r
b0 u
b11 q
b101011000000000000000000000000000011001xxxxxxxxxxxxxxxxxxxxxxxxxxxxxxxxxxxxxxxxxxxxxxxxxxxxxxxxxxxxxxxxxxxxxxxxxxxxxxxxxxxxxxxxxxxxxxxx000000000000000000000000000010000000000000000000000000000000100000000000000000000000000000000011 /
b11 m
b11 r
1G
b0 R
#275000
0!
00
#280000
1!
10
b1111 c
b1011 N
b1001 M
b11 e
b1 X
b1100000000000000000000000001010110xxxxxxxxxxxxxxxxxxxxxxxxxxxxxxxxxxxxxxxxxxxxxxxxxxxxxxxxxxxxxxxxxxxxxxxxxxxxxxxxxxxxxxxxxxxxxxxx000000000000000000000000000010000000000000000000000000000000100000000000000000000000000001010110 <
b10000 F
b1 p
b1010110 m
b1010110 r
b1 u
b10 V
b1100000000000000000000000001010110xxxxxxxxxxxxxxxxxxxxxxxxxxxxxxxxxxxxxxxxxxxxxxxxxxxxxxxxxxxxxxxxxxxxxxxxxxxxxxxxxxxxxxxxxxxxxxxx000000000000000000000000000010000000000000000000000000000000100000000000000000000000000001010110 /
#285000
0!
00
#290000
1!
10
b10000 c
b1100 N
b0 M
b11 L
0J
1I
b1100000000000000000000000000000011xxxxxxxxxxxxxxxxxxxxxxxxxxxxxxxxxxxxxxxxxxxxxxxxxxxxxxxxxxxxxxxxxxxxxxxxxxxxxxxxxxxxxxxxxxxxxxxx000000000000000000000000000010000000000000000000000000000000100000000000000000000000000001010110 <
b1011 F
b110010 m
0o
b1 H
b10 Q
0t
b110010 r
b1100000000000000000000000000000011xxxxxxxxxxxxxxxxxxxxxxxxxxxxxxxxxxxxxxxxxxxxxxxxxxxxxxxxxxxxxxxxxxxxxxxxxxxxxxxxxxxxxxxxxxxxxxxx000000000000000000000000000010000000000000000000000000000000100000000000000000000000000001010110 /
#295000
0!
00
#300000
1!
10
b1011 c
b1001 N
b1 L
0I
b10 j
b1010110 v
b1100 F
b10 p
b0 H
b10 R
b1 Q
b10 u
b11 P
b1010110 q
0G
1O
b1 R
#305000
0!
00
#310000
1!
10
b1100 c
b1010 N
b1010110 e
b11 i
1W
b101011000000000000000000000000000000011xxxxxxxxxxxxxxxxxxxxxxxxxxxxxxxxxxxxxxxxxxxxxxxxxxxxxxxxxxxxxxxxxxxxxxxxxxxxxxxxxxxxxxxxxxxxxxxx000000000000000000000000000010000000000000000000000000000000001000000000000000000000000001010110 <
b1010 v
b1011 F
b1 p
b1 u
b1010 q
b101011000000000000000000000000000000011xxxxxxxxxxxxxxxxxxxxxxxxxxxxxxxxxxxxxxxxxxxxxxxxxxxxxxxxxxxxxxxxxxxxxxxxxxxxxxxxxxxxxxxxxxxxxxxx000000000000000000000000000010000000000000000000000000000000001000000000000000000000000001010110 /
1G
b10 R
b10 p
b10 u
#315000
0!
00
#320000
1!
10
b1011 c
b1001 N
b1010 e
b11 j
b10 S
b101000000000000000000000000001010110xxxxxxxxxxxxxxxxxxxxxxxxxxxxxxxxxxxxxxxxxxxxxxxxxxxxxxxxxxxxxxxxxxxxxxxxxxxxxxxxxxxxxxxxxxxxxxxx000000000000000000000000000000110000000000000000000000000000001000000000000000000000000001010110 <
b1100 F
b11 p
b11 R
b11 u
b100 P
b101000000000000000000000000001010110xxxxxxxxxxxxxxxxxxxxxxxxxxxxxxxxxxxxxxxxxxxxxxxxxxxxxxxxxxxxxxxxxxxxxxxxxxxxxxxxxxxxxxxxxxxxxxxx000000000000000000000000000000110000000000000000000000000000001000000000000000000000000001010110 /
#325000
0!
00
#330000
1!
10
b1100 c
b1010 N
b100 i
b1010 k
b101000000000000000000000000000001010xxxxxxxxxxxxxxxxxxxxxxxxxxxxxxxxxxxxxxxxxxxxxxxxxxxxxxxxxxxxxxxxxxxxxxxxxxxxxxxxxxxxxxxxxxxxxxxx000000000000000000000000000000110000000000000000000000000000001100000000000000000000000001010110 <
b111101 v
b1011 F
0G
b111101 q
b101000000000000000000000000000001010xxxxxxxxxxxxxxxxxxxxxxxxxxxxxxxxxxxxxxxxxxxxxxxxxxxxxxxxxxxxxxxxxxxxxxxxxxxxxxxxxxxxxxxxxxxxxxxx000000000000000000000000000000110000000000000000000000000000001100000000000000000000000001010110 /
b10 R
b10 p
b10 u
#335000
0!
00
#340000
1!
10
b1011 c
b1001 N
b111101 e
b100 j
b11110100000000000000000000000000001010xxxxxxxxxxxxxxxxxxxxxxxxxxxxxxxxxxxxxxxxxxxxxxxxxxxxxxxxxxxxxxxxxxxxxxxxxxxxxxxxxxxxxxxxxxxxxxxx000000000000000000000000000001000000000000000000000000000000001100000000000000000000000000001010 <
b1010 v
b1100 F
b100 p
b100 u
b101 P
b1010 q
b11110100000000000000000000000000001010xxxxxxxxxxxxxxxxxxxxxxxxxxxxxxxxxxxxxxxxxxxxxxxxxxxxxxxxxxxxxxxxxxxxxxxxxxxxxxxxxxxxxxxxxxxxxxxx000000000000000000000000000001000000000000000000000000000000001100000000000000000000000000001010 /
#345000
0!
00
#350000
1!
10
b1100 c
b1010 N
b1010 e
b101 i
b101000000000000000000000000000111101xxxxxxxxxxxxxxxxxxxxxxxxxxxxxxxxxxxxxxxxxxxxxxxxxxxxxxxxxxxxxxxxxxxxxxxxxxxxxxxxxxxxxxxxxxxxxxxx000000000000000000000000000001000000000000000000000000000000010000000000000000000000000000001010 <
b100001 v
b1011 F
b10 p
b10 u
b100001 q
b101000000000000000000000000000111101xxxxxxxxxxxxxxxxxxxxxxxxxxxxxxxxxxxxxxxxxxxxxxxxxxxxxxxxxxxxxxxxxxxxxxxxxxxxxxxxxxxxxxxxxxxxxxxx000000000000000000000000000001000000000000000000000000000000010000000000000000000000000000001010 /
#355000
0!
00
#360000
1!
10
b1011 c
b1001 N
b100001 e
b101 j
b10000100000000000000000000000000001010xxxxxxxxxxxxxxxxxxxxxxxxxxxxxxxxxxxxxxxxxxxxxxxxxxxxxxxxxxxxxxxxxxxxxxxxxxxxxxxxxxxxxxxxxxxxxxxx000000000000000000000000000001010000000000000000000000000000010000000000000000000000000000001010 <
b1010 v
b1100 F
b101 p
b101 u
b110 P
b1010 q
b10000100000000000000000000000000001010xxxxxxxxxxxxxxxxxxxxxxxxxxxxxxxxxxxxxxxxxxxxxxxxxxxxxxxxxxxxxxxxxxxxxxxxxxxxxxxxxxxxxxxxxxxxxxxx000000000000000000000000000001010000000000000000000000000000010000000000000000000000000000001010 /
#365000
0!
00
#370000
1!
10
b1100 c
b1010 N
b1010 e
b110 i
b101000000000000000000000000000100001xxxxxxxxxxxxxxxxxxxxxxxxxxxxxxxxxxxxxxxxxxxxxxxxxxxxxxxxxxxxxxxxxxxxxxxxxxxxxxxxxxxxxxxxxxxxxxxx000000000000000000000000000001010000000000000000000000000000010100000000000000000000000000001010 <
b1010110 v
b1011 F
b10 p
b10 u
b1010110 q
b101000000000000000000000000000100001xxxxxxxxxxxxxxxxxxxxxxxxxxxxxxxxxxxxxxxxxxxxxxxxxxxxxxxxxxxxxxxxxxxxxxxxxxxxxxxxxxxxxxxxxxxxxxxx000000000000000000000000000001010000000000000000000000000000010100000000000000000000000000001010 /
#375000
0!
00
#380000
1!
10
b1011 c
b1001 N
b1010110 e
b110 j
b101011000000000000000000000000000001010xxxxxxxxxxxxxxxxxxxxxxxxxxxxxxxxxxxxxxxxxxxxxxxxxxxxxxxxxxxxxxxxxxxxxxxxxxxxxxxxxxxxxxxxxxxxxxxx000000000000000000000000000001100000000000000000000000000000010100000000000000000000000000001010 <
b1010 v
b1100 F
b110 p
b110 u
b111 P
b1010 q
b101011000000000000000000000000000001010xxxxxxxxxxxxxxxxxxxxxxxxxxxxxxxxxxxxxxxxxxxxxxxxxxxxxxxxxxxxxxxxxxxxxxxxxxxxxxxxxxxxxxxxxxxxxxxx000000000000000000000000000001100000000000000000000000000000010100000000000000000000000000001010 /
#385000
0!
00
#390000
1!
10
b1100 c
b1010 N
b1010 e
b111 i
b101000000000000000000000000001010110xxxxxxxxxxxxxxxxxxxxxxxxxxxxxxxxxxxxxxxxxxxxxxxxxxxxxxxxxxxxxxxxxxxxxxxxxxxxxxxxxxxxxxxxxxxxxxxx000000000000000000000000000001100000000000000000000000000000011000000000000000000000000000001010 <
b111011 v
b1011 F
b10 p
b10 u
b111011 q
b101000000000000000000000000001010110xxxxxxxxxxxxxxxxxxxxxxxxxxxxxxxxxxxxxxxxxxxxxxxxxxxxxxxxxxxxxxxxxxxxxxxxxxxxxxxxxxxxxxxxxxxxxxxx000000000000000000000000000001100000000000000000000000000000011000000000000000000000000000001010 /
#395000
0!
00
#400000
1!
10
b1011 c
b1001 N
b111011 e
b111 j
b11101100000000000000000000000000001010xxxxxxxxxxxxxxxxxxxxxxxxxxxxxxxxxxxxxxxxxxxxxxxxxxxxxxxxxxxxxxxxxxxxxxxxxxxxxxxxxxxxxxxxxxxxxxxx000000000000000000000000000001110000000000000000000000000000011000000000000000000000000000001010 <
b1010 v
b1100 F
b111 p
b111 u
b1000 P
b1010 q
b11101100000000000000000000000000001010xxxxxxxxxxxxxxxxxxxxxxxxxxxxxxxxxxxxxxxxxxxxxxxxxxxxxxxxxxxxxxxxxxxxxxxxxxxxxxxxxxxxxxxxxxxxxxxx000000000000000000000000000001110000000000000000000000000000011000000000000000000000000000001010 /
0O
#405000
0!
00
#410000
1!
10
b1100 c
b1010 N
b1010 e
b1000 i
0W
b101000000000000000000000000000111011xxxxxxxxxxxxxxxxxxxxxxxxxxxxxxxxxxxxxxxxxxxxxxxxxxxxxxxxxxxxxxxxxxxxxxxxxxxxxxxxxxxxxxxxxxxxxxxx000000000000000000000000000001110000000000000000000000000000011100000000000000000000000000001010 <
b11001 v
b1101 F
b1 p
b1 u
b11001 q
b101000000000000000000000000000111011xxxxxxxxxxxxxxxxxxxxxxxxxxxxxxxxxxxxxxxxxxxxxxxxxxxxxxxxxxxxxxxxxxxxxxxxxxxxxxxxxxxxxxxxxxxxxxxx000000000000000000000000000001110000000000000000000000000000011100000000000000000000000000001010 /
