HLS/bdw_work/sims/UNROLL_V/verilog.vcd
$date
    Apr 18, 2022  10:51:29
$end
$version
    TOOL:	ncsim(64)	15.20-s084
$end
$timescale
    1 ps
$end

$scope module top $end

$scope module dut0 $end
$var reg       1 !    clk  $end
$var reg       1 "    rst  $end
$var wire      1 #    din_busy  $end
$var reg       1 $    din_vld  $end
$var reg       8 %    din_data_a [7:0] $end
$var reg       8 &    din_data_b [7:0] $end
$var reg       8 '    din_data_c [7:0] $end
$var reg       8 (    din_data_d [7:0] $end
$var reg       8 )    din_data_e [7:0] $end
$var reg       8 *    din_data_f [7:0] $end
$var reg       8 +    din_data_g [7:0] $end
$var reg       8 ,    din_data_h [7:0] $end
$var reg       1 -    dout_busy  $end
$var wire      1 .    dout_vld  $end
$var wire     256 /    dout_data [255:0] $end

$scope module dut0 $end
$var wire      1 0    clk  $end
$var wire      1 1    rst  $end
$var wire      1 2    din_vld  $end
$var wire      8 3    din_data_a [7:0] $end
$var wire      8 4    din_data_b [7:0] $end
$var wire      8 5    din_data_c [7:0] $end
$var wire      8 6    din_data_d [7:0] $end
$var wire      8 7    din_data_e [7:0] $end
$var wire      8 8    din_data_f [7:0] $end
$var wire      8 9    din_data_g [7:0] $end
$var wire      8 :    din_data_h [7:0] $end
$var wire      1 ;    dout_busy  $end
$var wire      1 #    din_busy  $end
$var wire      1 .    dout_vld  $end
$var wire     256 /    dout_data [255:0] $end
$var reg       1 <    dout_m_req_m_prev_trig_req  $end
$var reg       1 =    dout_m_unacked_req  $end
$var wire      1 >    dut_Xor_1Ux1U_1U_1_4_out1  $end
$var wire      1 ?    dut_Or_1Ux1U_1U_4_5_out1  $end
$var reg       1 @    dut_N_Muxb_1_2_12_4_1_out1  $end
$var reg       1 A    din_m_unvalidated_req  $end
$var wire      1 B    dut_gen_busy_r_1_2_gnew_req  $end
$var wire      1 C    dut_gen_busy_r_1_2_gdiv  $end
$var wire      1 D    dut_gen_busy_r_1_2_gen_busy_din_m_data_is_invalid_next  $end
$var reg       2 E    global_state_next [1:0] $end
$var wire      1 F    dut_Equal_3Ux3U_1U_4_151_out1  $end
$var wire      3 G    dut_Equal_3Ux3U_1U_4_151_in2 [2:0] $end
$var wire      1 H    dut_LessThan_8Ux8U_1U_4_148_out1  $end
$var reg       8 I    dut_N_Mux_8_2_7_4_147_out1 [7:0] $end
$var reg       8 J    dut_N_Mux_8_2_7_4_146_out1 [7:0] $end
$var wire      1 K    dut_Equal_3Ux3U_1U_4_145_out1  $end
$var wire      1 L    dut_Equal_3Ux3U_1U_4_144_out1  $end
$var reg       2 M    dut_N_Mux_3_2_6_4_143_out1_slice [1:0] $end
$var wire      1 N    dut_LessThan_8Ux8U_1U_4_142_out1  $end
$var reg       8 O    dut_N_Mux_8_2_7_4_141_out1 [7:0] $end
$var reg       8 P    dut_N_Mux_8_2_7_4_140_out1 [7:0] $end
$var wire      1 Q    dut_Equal_3Ux3U_1U_4_139_out1  $end
$var wire      1 R    dut_Equal_3Ux3U_1U_4_138_out1  $end
$var reg       2 S    dut_N_Mux_3_2_5_1_137_out1_slice [1:0] $end
$var wire      1 T    dut_LessThan_8Ux8U_1U_4_136_out1  $end
$var reg       8 U    dut_N_Mux_8_2_7_4_135_out1 [7:0] $end
$var reg       8 V    dut_N_Mux_8_2_7_4_134_out1 [7:0] $end
$var wire      1 W    dut_Equal_3Ux3U_1U_4_133_out1  $end
$var wire      1 X    dut_Equal_3Ux3U_1U_4_132_out1  $end
$var reg       3 Y    dut_N_Mux_3_2_6_4_131_out1 [2:0] $end
$var wire      1 Z    dut_LessThan_8Ux8U_1U_4_130_out1  $end
$var reg       8 [    dut_N_Mux_8_8_0_4_129_out1 [7:0] $end
$var reg       3 \    dut_N_Mux_3_2_5_1_128_out1 [2:0] $end
$var wire      3 ]    dut_N_Mux_3_2_5_1_128_in2 [2:0] $end
$var wire      1 ^    dut_LessThan_8Ux8U_1U_4_127_out1  $end
$var reg       8 _    dut_N_Mux_8_8_0_4_126_out1 [7:0] $end
$var wire      3 `    dut_N_Mux_8_8_0_4_126_ctrl1 [2:0] $end
$var wire      1 a    dut_LessThan_8Ux8U_1U_4_125_out1  $end
$var reg       8 b    dut_N_Mux_8_2_7_4_120_out1 [7:0] $end
$var reg       8 c    dut_N_Mux_8_2_7_4_119_out1 [7:0] $end
$var reg       8 d    dut_N_Mux_8_2_7_4_118_out1 [7:0] $end
$var reg       8 e    dut_N_Mux_8_2_7_4_117_out1 [7:0] $end
$var wire      1 f    dut_Equal_3Ux3U_1U_4_116_out1  $end
$var wire      1 g    dut_Equal_3Ux3U_1U_4_115_out1  $end
$var wire      1 h    dut_Equal_3Ux3U_1U_4_114_out1  $end
$var wire      1 i    dut_Equal_3Ux3U_1U_4_113_out1  $end
$var reg       3 j    dut_N_Mux_3_2_6_4_112_out1 [2:0] $end
$var wire      1 k    dut_LessThan_8Ux8U_1U_4_111_out1  $end
$var reg       8 l    dut_N_Mux_8_4_9_4_110_out1 [7:0] $end
$var reg       8 m    dut_N_Mux_8_2_7_4_109_out1 [7:0] $end
$var reg       3 n    dut_N_Mux_3_2_5_1_108_out1 [2:0] $end
$var wire      1 o    dut_Equal_3Ux3U_1U_4_107_out1  $end
$var wire      1 p    dut_LessThan_8Ux8U_1U_4_106_out1  $end
$var reg       8 q    dut_N_Mux_8_3_8_1_105_out1 [7:0] $end
$var reg       8 r    dut_N_Mux_8_2_7_4_104_out1 [7:0] $end
$var reg       3 s    dut_N_Mux_3_2_4_1_103_out1 [2:0] $end
$var wire      1 t    dut_Equal_3Ux3U_1U_4_102_out1  $end
$var wire      1 u    dut_LessThan_8Ux8U_1U_4_101_out1  $end
$var reg       8 v    dut_N_Mux_8_2_7_4_100_out1 [7:0] $end
$var reg       8 w    dut_N_Mux_8_2_7_4_99_out1 [7:0] $end
$var wire      1 x    dut_Equal_3Ux2U_1U_1_98_out1  $end
$var wire      1 y    dut_Equal_3Ux3U_1U_4_97_out1  $end
$var reg       3 z    dut_N_Mux_3_2_3_4_96_out1 [2:0] $end
$var wire      1 {    dut_LessThan_8Ux8U_1U_4_95_out1  $end
$var reg       8 |    dut_N_Mux_8_2_7_4_94_out1 [7:0] $end
$var reg       8 }    dut_N_Mux_8_2_7_4_93_out1 [7:0] $end
$var wire      1 ~    dut_Equal_3Ux2U_1U_4_92_out1  $end
$var wire      1 !!   dut_Equal_3Ux3U_1U_4_91_out1  $end
$var wire      1 "!   dut_Equal_3Ux1U_1U_4_90_out1  $end
$var wire      1 #!   dut_OrReduction_3U_1U_4_89_out1  $end
$var reg       3 $!   dut_N_Mux_3_2_6_4_88_out1 [2:0] $end
$var wire      1 %!   dut_LessThan_8Ux8U_1U_4_87_out1  $end
$var reg       8 &!   dut_N_Mux_8_8_0_4_86_out1 [7:0] $end
$var reg       3 '!   dut_N_Mux_3_2_5_1_85_out1 [2:0] $end
$var wire      1 (!   dut_LessThan_8Ux8U_1U_4_84_out1  $end
$var reg       8 )!   dut_N_Mux_8_8_0_4_83_out1 [7:0] $end
$var reg       3 *!   dut_N_Mux_3_2_4_4_82_out1 [2:0] $end
$var wire      1 +!   dut_LessThan_8Ux8U_1U_4_81_out1  $end
$var reg       8 ,!   dut_N_Mux_8_8_0_4_80_out1 [7:0] $end
$var reg       3 -!   dut_N_Mux_3_2_3_4_79_out1 [2:0] $end
$var wire      1 .!   dut_LessThan_8Ux8U_1U_4_78_out1  $end
$var wire      3 /!   dut_N_Mux_8_8_0_4_77_ctrl1 [2:0] $end
$var wire      1 0!   dut_Equal_3Ux3U_1U_4_67_out1  $end
$var wire      1 1!   dut_Equal_3Ux3U_1U_4_66_out1  $end
$var wire      1 2!   dut_Equal_3Ux3U_1U_4_65_out1  $end
$var wire      1 3!   dut_Equal_3Ux3U_1U_4_64_out1  $end
$var wire      1 4!   dut_Equal_3Ux2U_1U_1_63_out1  $end
$var wire      1 5!   dut_Equal_3Ux2U_1U_1_62_out1  $end
$var wire      1 6!   dut_OrReduction_3U_1U_4_61_out1  $end
$var reg       3 7!   dut_N_Mux_3_2_6_4_60_out1 [2:0] $end
$var wire      1 8!   dut_LessThan_8Ux8U_1U_4_59_out1  $end
$var reg       8 9!   dut_N_Mux_8_8_0_4_58_out1 [7:0] $end
$var reg       3 :!   dut_N_Mux_3_2_5_1_57_out1 [2:0] $end
$var wire      1 ;!   dut_LessThan_8Ux8U_1U_4_56_out1  $end
$var reg       8 <!   dut_N_Mux_8_8_0_4_55_out1 [7:0] $end
$var reg       3 =!   dut_N_Mux_3_2_4_1_54_out1 [2:0] $end
$var wire      1 >!   dut_LessThan_8Ux8U_1U_4_53_out1  $end
$var reg       8 ?!   dut_N_Mux_8_8_0_4_52_out1 [7:0] $end
$var reg       3 @!   dut_N_Mux_3_2_3_1_51_out1 [2:0] $end
$var wire      1 A!   dut_LessThan_8Ux8U_1U_4_50_out1  $end
$var reg       8 B!   dut_N_Mux_8_8_0_4_49_out1 [7:0] $end
$var reg       3 C!   dut_N_Mux_3_2_2_1_48_out1 [2:0] $end
$var wire      3 D!   dut_N_Mux_3_2_2_1_48_in2 [2:0] $end
$var wire      1 E!   dut_LessThan_8Ux8U_1U_4_47_out1  $end
$var reg       8 F!   dut_N_Mux_8_8_0_4_46_out1 [7:0] $end
$var wire      3 G!   dut_N_Mux_8_8_0_4_46_ctrl1 [2:0] $end
$var reg       8 H!   dut_N_Mux_8_2_7_4_45_out1 [7:0] $end
$var reg       8 I!   dut_N_Mux_8_8_0_4_44_out1 [7:0] $end
$var wire      1 J!   dut_OrReduction_3U_1U_4_43_out1  $end
$var wire      1 K!   dut_LessThan_8Ux8U_1U_4_42_out1  $end
$var wire      1 L!   dut_GreaterThanEQ_8Ux8U_1U_4_41_out1  $end
$var reg       8 M!   dut_N_Mux_8_2_7_4_40_out1 [7:0] $end
$var reg       8 N!   dut_N_Mux_8_2_7_4_39_out1 [7:0] $end
$var reg       8 O!   dut_N_Mux_8_2_7_4_38_out1 [7:0] $end
$var reg       8 P!   dut_N_Mux_8_2_7_4_37_out1 [7:0] $end
$var reg       8 Q!   dut_N_Mux_8_2_7_4_36_out1 [7:0] $end
$var reg       8 R!   dut_N_Mux_8_2_7_4_35_out1 [7:0] $end
$var reg       8 S!   dut_N_Mux_8_2_7_4_34_out1 [7:0] $end
$var wire      1 T!   dut_Equal_3Ux2U_1U_4_33_out1  $end
$var wire      1 U!   dut_Equal_3Ux3U_1U_4_32_out1  $end
$var wire      1 V!   dut_Equal_3Ux3U_1U_4_31_out1  $end
$var wire      1 W!   dut_Equal_3Ux3U_1U_4_30_out1  $end
$var wire      1 X!   dut_Equal_3Ux3U_1U_4_29_out1  $end
$var wire      1 Y!   dut_Equal_3Ux1U_1U_1_28_out1  $end
$var wire      1 Z!   dut_Equal_3Ux2U_1U_1_27_out1  $end
$var reg       3 [!   dut_N_Mux_3_2_6_4_26_out1 [2:0] $end
$var wire      1 \!   dut_LessThan_8Ux8U_1U_4_25_out1  $end
$var reg       8 ]!   dut_N_Mux_8_8_0_4_24_out1 [7:0] $end
$var reg       3 ^!   dut_N_Mux_3_2_5_1_23_out1 [2:0] $end
$var wire      1 _!   dut_LessThan_8Ux8U_1U_4_22_out1  $end
$var reg       8 `!   dut_N_Mux_8_8_0_4_21_out1 [7:0] $end
$var reg       3 a!   dut_N_Mux_3_2_4_1_20_out1 [2:0] $end
$var wire      1 b!   dut_LessThan_8Ux8U_1U_4_19_out1  $end
$var reg       8 c!   dut_N_Mux_8_8_0_4_18_out1 [7:0] $end
$var reg       3 d!   dut_N_Mux_3_2_3_1_17_out1 [2:0] $end
$var wire      1 e!   dut_LessThan_8Ux8U_1U_4_16_out1  $end
$var reg       8 f!   dut_N_Mux_8_8_0_4_15_out1 [7:0] $end
$var reg       2 g!   dut_N_Mux_3_2_2_1_14_out1_slice [1:0] $end
$var wire      1 h!   dut_LessThan_8Ux8U_1U_4_13_out1  $end
$var reg       8 i!   dut_N_Mux_8_8_0_4_12_out1 [7:0] $end
$var reg       2 j!   dut_N_Mux_3_2_1_1_11_out1_slice [1:0] $end
$var wire      1 k!   dut_LessThan_8Ux8U_1U_4_10_out1  $end
$var reg       8 l!   dut_N_Mux_8_8_0_4_9_out1 [7:0] $end
$var wire      1 m!   dut_LessThan_8Ux8U_1U_4_8_out1  $end
$var reg       8 n!   dut_N_Mux_8_8_0_4_77_out1 [7:0] $end
$var reg       8 o!   s_reg_20 [7:0] $end
$var wire      1 p!   dut_LessThan_8Ux8U_1U_4_76_out1  $end
$var reg       1 q!   s_reg_19_slice  $end
$var reg       8 r!   dut_N_Mux_8_2_7_4_75_out1 [7:0] $end
$var reg       8 s!   s_reg_18 [7:0] $end
$var reg       8 t!   dut_N_Mux_8_8_0_4_74_out1 [7:0] $end
$var reg       8 u!   s_reg_17 [7:0] $end
$var reg       8 v!   dut_N_Mux_8_2_7_4_73_out1 [7:0] $end
$var reg       8 w!   s_reg_16 [7:0] $end
$var reg       8 x!   dut_N_Mux_8_2_7_4_72_out1 [7:0] $end
$var reg       8 y!   s_reg_15 [7:0] $end
$var reg       8 z!   dut_N_Mux_8_2_7_4_71_out1 [7:0] $end
$var reg       8 {!   s_reg_14 [7:0] $end
$var reg       8 |!   dut_N_Mux_8_2_7_4_70_out1 [7:0] $end
$var reg       8 }!   s_reg_13 [7:0] $end
$var reg       8 ~!   dut_N_Mux_8_2_7_4_69_out1 [7:0] $end
$var reg       8 !"   s_reg_12 [7:0] $end
$var reg       8 ""   dut_N_Mux_8_2_7_4_68_out1 [7:0] $end
$var reg       8 #"   s_reg_11 [7:0] $end
$var wire      3 $"   dut_gen_busy_r_1_2_out1 [2:0] $end
$var wire      1 %"   dut_And_1Ux1U_1U_1_6_out1  $end
$var wire      1 &"   dut_Not_1U_1U_1_7_out1  $end
$var reg       1 '"   dout_m_req_m_trig_req  $end
$var reg       2 ("   global_state [1:0] $end
$var reg       1 )"   din_m_busy_req_0  $end
$var reg       8 *"   dut_N_Mux_8_2_7_4_152_out1 [7:0] $end
$var reg       8 +"   dut_N_Mux_8_8_0_4_153_out1 [7:0] $end
$var reg       8 ,"   dut_N_Mux_8_3_11_4_149_out1 [7:0] $end
$var reg       8 -"   dut_N_Mux_8_8_0_4_150_out1 [7:0] $end
$var reg       8 ."   dut_N_Mux_8_5_10_4_121_out1 [7:0] $end
$var reg       8 /"   dut_N_Mux_8_8_0_4_122_out1 [7:0] $end
$var reg       8 0"   dut_N_Mux_8_2_7_4_123_out1 [7:0] $end
$var reg       8 1"   dut_N_Mux_8_2_7_4_124_out1 [7:0] $end
$var reg      64 2"   dout_data_slice [63:0] $end
$var reg       1 3"   stall0  $end
$upscope $end

$upscope $end

$upscope $end

$enddefinitions $end
$dumpvars
1!
0"
1#
0$
b0 %
b0 &
b0 '
b0 (
b0 )
b0 *
b0 +
b0 ,
1-
0.
b0xxxxxxxx000000000000000000000000xxxxxxxx000000000000000000000000xxxxxxxx000000000000000000000000xxxxxxxx000000000000000000000000xxxxxxxx000000000000000000000000xxxxxxxx000000000000000000000000xxxxxxxx000000000000000000000000xxxxxxxx /
10
01
02
b0 3
b0 4
b0 5
b0 6
b0 7
b0 8
b0 9
b0 :
1;
0<
0=
0>
0?
1@
1A
1B
0C
1D
b1 E
0F
b110 G
0H
b0 I
b0 J
0K
0L
b1 M
0N
b0 O
b0 P
1Q
0R
b1 S
0T
b0 U
b0 V
0W
0X
b100 Y
0Z
b0 [
b100 \
b100 ]
0^
b0 _
b100 `
0a
b0 b
b0 c
b0 d
b0 e
0f
0g
0h
0i
b11 j
0k
b0 l
b0 m
b11 n
0o
0p
b0 q
b0 r
b11 s
0t
0u
b0 v
b0 w
1x
0y
b11 z
0{
b0 |
b0 }
0~
0!!
0"!
1#!
b10 $!
0%!
b0 &!
b10 '!
0(!
b0 )!
b10 *!
0+!
b0 ,!
b10 -!
0.!
b10 /!
00!
01!
02!
03!
04!
05!
16!
b1 7!
08!
b0 9!
b1 :!
0;!
b0 <!
b1 =!
0>!
b0 ?!
b1 @!
0A!
b0 B!
b1 C!
b1 D!
0E!
b0 F!
b1 G!
b0 H!
b0 I!
0J!
0K!
1L!
b0 M!
b0 N!
b0 O!
b0 P!
b0 Q!
b0 R!
b0 S!
0T!
0U!
0V!
0W!
0X!
0Y!
0Z!
b0 [!
0\!
b0 ]!
b0 ^!
0_!
b0 `!
b0 a!
0b!
b0 c!
b0 d!
0e!
b0 f!
b0 g!
0h!
b0 i!
b0 j!
0k!
b0 l!
0m!
b0 n!
b0 o!
0p!
0q!
b0 r!
b0 s!
b0 t!
b0 u!
b0 v!
b0 w!
b0 x!
b0 y!
b0 z!
b0 {!
b0 |!
b0 }!
b0 ~!
b0 !"
b0 ""
b0 #"
b101 $"
0%"
1&"
0'"
b0 ("
1)"
b0 *"
b0 +"
b0 ,"
b0 -"
b0 ."
b0 /"
b0 0"
b0 1"
bx 2"
03"
$end
#5000
0!
00
#10000
1!
10
b0 2"
b0 /
0-
0;
#15000
0!
00
#20000
1!
10
1"
11
#25000
0!
00
#30000
1!
10
0)"
b1 ("
0@
13"
b10 E
0B
b1 $"
0#
1$
b1010110 %
b11 &
b1010 '
b111101 (
b100001 )
b1010110 *
b111011 +
b11001 ,
b11001 :
b111011 9
b1010110 8
b100001 7
b111101 6
b1010 5
b11 4
b1010110 3
12
1C
0D
b1010110 I!
b11001 Q!
b1010110 ]!
b1010110 `!
b1010110 c!
b1010110 l!
b111011 P!
b1010110 O!
b100001 N!
b111101 M!
b1010110 f!
b1010110 i!
b1010 S!
b11 R!
b1010110 H!
1@
b11 F!
b11 B!
b11 ?!
b11 <!
b11 9!
b11001 |!
b11 t!
b111011 z!
b1010110 x!
b100001 v!
b111101 ""
b1010 ~!
b1010110 r!
b1010 n!
1h!
1e!
1\!
b10 $"
1m!
1k!
1_!
b11 g!
b100 d!
b111 [!
03"
b10 j!
b11 l!
b110 ^!
b111101 f!
b100001 c!
b100 a!
b11001 I!
b1010 i!
b111011 ]!
b100001 `!
0_!
0h!
0k!
1J!
1X!
b100 ^!
b10 g!
b1 j!
b11001 H!
b1010110 Q!
b100001 ]!
b1010 f!
b11 i!
b1 g!
b11001 r!
b1010110 |!
b11 f!
0e!
b1 d!
b11 c!
b1 a!
b11 `!
b1 ^!
b11 ]!
0\!
b1 [!
b11 I!
b11 H!
b11 r!
0X!
1Y!
b11001 Q!
b1010110 R!
b1010110 F!
b1010110 B!
b1010110 ?!
b1010110 <!
b1010110 9!
b11001 |!
b1010110 t!
1;!
1A!
1E!
1K!
0L!
18!
b110 :!
b100 @!
b11 C!
b111 7!
b111011 9!
b100001 ?!
b100 =!
b111101 B!
b11001 t!
b100001 <!
0;!
13!
b10 D!
b10 G!
b100 :!
b1010110 |!
b1010 F!
b100001 9!
0E!
b10 C!
b1010 B!
0A!
b10 @!
b1010 ?!
b10 =!
b1010 <!
b10 :!
b1010 9!
08!
b10 7!
b1010 t!
03!
14!
b11001 |!
b1010110 ~!
b1010110 n!
1p!
b11 /!
b111101 n!
#35000
0!
00
#40000
1!
10
1q!
b111101 o!
b1010 u!
b11 s!
b1010110 y!
b100001 w!
b11001 }!
b111011 {!
b111101 #"
b1010110 !"
1)"
b10 ("
b11 -!
b111101 ,!
b1010110 )!
b1010110 &!
b1010110 /"
b1010 0"
b11 1"
b1010110 w
b100001 }
b11001 m
b111011 r
b111101 |
b11 E
b11 *!
b111101 q
b111101 l
b1010110 e
b111101 ."
b111101 v
b100001 d
b11001 c
b111011 b
b111101 )!
b11 '!
b100001 _
b100001 [
b1010110 U
b100001 -"
b111011 V
b11001 P
b111101 &!
b11 $!
b1010110 O
b11001 J
b111011 I
b1010110 ,"
b111101 /"
b11001 *"
b111011 +"
1H
1~
1N
1T
1Z
1p
1k
1{
1B
1(!
1%!
1.!
0C
1D
b1010110 |
b11 M
b10 S
b111 Y
b110 n
b111 j
b100 z
b110 '!
b111 $!
b100 -!
b1010110 v
b1010110 q
b111011 l
b11001 ."
b11001 ,"
b11001 -"
b100 s
b111011 &!
b11001 /"
b100001 ,!
b100 *!
b100001 q
b100001 )!
0(!
0p
1o
0~
0x
1g
1R
0Q
1L
b101 $"
b111 G
b100 '!
b100 n
b1010110 m
b111101 |
b100001 v
b111101 c
b100001 P
b111011 O
b1010110 J
b1010110 +"
b100001 &!
b100001 l
b1010110 ."
b111101 -"
b100001 ,"
b1010110 *"
0H
0Z
0k
1F
1#
b100 Y
b100 j
b111011 *"
b100001 -"
b100001 ."
0g
1h
0R
b110 G
b1010110 c
b111101 d
b1010110 P
b111011 +"
b111101 _
b111101 [
b111101 -"
b1010110 ,"
1^
0N
0F
b110 \
b10 M
b1010110 *"
b111011 [
b110 Y
b111011 ,"
b111011 -"
1X
1K
0L
b111101 V
b1010110 I
b111101 O
b111101 ,"
b1010110 +"
b110010 %
b1011100 &
b10100 '
b1001010 (
b1000111 )
b100111 *
b1001101 +
b1010 ,
b1010 :
b1001101 9
b100111 8
b1000111 7
b1001010 6
b10100 5
b1011100 4
b110010 3
b1011100 I!
b1010 Q!
b1011100 ]!
b1011100 `!
b1011100 c!
b1011100 l!
b1001101 P!
b100111 O!
b1000111 N!
b1001010 M!
b1011100 f!
b1011100 i!
b10100 S!
b110010 R!
b1011100 H!
b10100 F!
b10100 B!
b10100 ?!
b10100 <!
b10100 9!
b1010 |!
b10100 t!
b1001101 z!
b100111 x!
b1000111 v!
b1001010 ""
b110010 ~!
b1011100 r!
b1001010 n!
0p!
1h!
1e!
1\!
18!
0m!
1k!
1b!
1_!
b11 g!
b100 d!
b111 [!
b111 7!
b10 j!
b110010 l!
b101 a!
b110 ^!
b1001010 f!
b1000111 c!
b1010 I!
b1010 t!
b10100 i!
b100111 `!
b1001101 ]!
b1010 H!
b1010 r!
0_!
0h!
13!
04!
1X!
0Y!
b10 /!
b101 ^!
b10 g!
b110010 |!
b10100 ~!
b110010 Q!
b1011100 R!
b10100 n!
b100111 ]!
b10100 f!
b1011100 |!
b110010 t!
0e!
08!
b10 d!
b10 7!
b10100 c!
b10100 t!
0b!
03!
14!
b10 a!
b110010 |!
b1011100 ~!
b10100 `!
b10 ^!
b1011100 n!
b10100 ]!
1p!
b11 /!
b1001010 n!
#45000
0!
00
#50000
1!
10
b1001010 o!
b10100 u!
b1010 s!
b100111 y!
b1000111 w!
b110010 }!
b1001101 {!
b1001010 #"
b1011100 !"
1'"
b11 ("
b101011001010110001111010011101100100001000110010000101000000011 2"
b1000111 ,!
b1000111 )!
b1000111 &!
b110010 /"
b10100 0"
b1010 1"
b100111 w
b1000111 }
b1011100 m
b1001101 r
b1001010 |
b1 E
b1000111 q
b1000111 l
b100111 e
b1000111 ."
b1000111 v
b1001010 d
b1011100 c
b1001101 b
b1001010 _
b1001101 [
b100111 U
b1001101 -"
b1001010 V
b1011100 P
b1001010 O
b1011100 J
b100111 I
b1001010 ,"
b1011100 *"
b100111 +"
0T
0^
1u
1a
b101011000000000000000000000000001010110000000000000000000000000001111010000000000000000000000000011101100000000000000000000000000100001000000000000000000000000000110010000000000000000000000000000101000000000000000000000000000000011 /
0&"
1>
1+!
b1 S
b100 \
b101 s
b101 *!
b1 M
b1001010 [
b100 Y
b100111 q
b101 n
b100111 )!
b101 '!
b100111 ,"
b1001010 -"
b100111 l
b101 j
b100111 &!
b100111 ."
0%!
0h
1i
0X
0K
1Q
1?
b101 ]
b101 `
1.
b101 $!
b1000111 d
b1001010 e
b1001101 V
b1001101 I
b100111 O
b101 \
b100111 /"
b1001010 U
b1000111 -"
b1001010 ,"
b1001101 +"
b101 Y
b1001010 O
b1001010 -"
1W
0a
0o
1y
b1000111 U
b110010 m
b1011100 w
b1000111 O
b1000111 ,"
b110010 c
b1011100 ."
b1011100 q
b1011100 l
b110010 P
b110010 J
b110010 *"
1H
1N
1k
1p
1Z
0u
b100 ]
b100 `
b11 M
b111 j
b110 n
b111 Y
b100 s
b100 \
b1000111 _
b110010 ,"
b110010 ."
b1001101 l
b110010 -"
b1000111 q
b1000111 [
0p
1R
0W
1g
0i
1L
b111 G
b100 n
b1000111 P
b1001010 U
b1001010 c
b1011100 e
b1001010 J
b1001010 +"
b1000111 l
b1000111 ,"
b1001010 O
b1001010 -"
b1011100 U
b1001010 *"
b1011100 O
b1011100 J
b1011100 *"
b1011100 +"
0H
1T
0Z
1F
b10 S
b100 Y
b1001101 *"
b1000111 -"
0R
0Q
b110 G
b1001010 P
b1001101 O
b1001101 +"
b1001010 ,"
0F
b1011100 *"
#55000
0!
00
#60000
1!
10
1<
0)"
b1 ("
b101110001001101010010100100011100110010001001110001010000001010 2"
13"
b10 E
b101110000000000000000000000000001001101000000000000000000000000010010100000000000000000000000000100011100000000000000000000000000110010000000000000000000000000001001110000000000000000000000000001010000000000000000000000000000001010 /
0B
0>
1C
0D
0?
b10 $"
0.
03"
0#
#65000
0!
00
#70000
1!
10
1)"
b10 ("
b11 E
1B
0C
1D
b101 $"
1#
b110011 %
b1100010 &
b110 '
b11100 (
b1100 )
b110110 *
b110010 +
b1000011 ,
b1000011 :
b110010 9
b110110 8
b1100 7
b11100 6
b110 5
b1100010 4
b110011 3
b1000011 I!
b110011 Q!
b110 ]!
b110 `!
b110 c!
b110011 l!
b110010 P!
b110110 O!
b1100 N!
b11100 M!
b110 f!
b110 i!
b110 S!
b1100010 R!
b1000011 H!
b110 F!
b110 B!
b110 ?!
b110 <!
b110 9!
b110011 |!
b110 t!
b110010 z!
b110110 x!
b1100 v!
b11100 ""
b1100010 ~!
b1000011 r!
b11100 n!
0\!
b10 [!
b110 I!
b110 H!
b110 r!
0X!
1Z!
b1000011 Q!
b110011 S!
b110011 F!
b110011 B!
b110011 ?!
b110011 <!
b110011 9!
b1000011 |!
b110011 t!
1;!
1A!
1E!
b110 :!
b100 @!
b11 C!
b110010 9!
b110 7!
b1100 ?!
b100 =!
b11100 B!
b110010 t!
b1100 <!
0;!
12!
04!
b100 :!
b1100010 z!
b110011 ~!
b1100 9!
b100 7!
b1100 t!
10!
02!
b1100010 v!
b110010 z!
#75000
0!
00
#80000
1!
10
b11100 o!
b1100 u!
b110 s!
b110110 y!
b1100010 w!
b1000011 }!
b110010 {!
b11100 #"
b110011 !"
0'"
b11 ("
b1100010 ,!
b110110 )!
b110110 &!
b110110 /"
b1100 0"
b110 1"
b110011 w
b1100010 }
b1000011 m
b110010 r
b11100 |
b1 E
b1100010 q
b1100010 l
b110011 e
b1000011 ."
b1100010 v
b1100010 d
b11100 c
b110010 b
b1100010 _
b1100010 [
b110011 U
b1100010 -"
b110010 V
b11100 P
b110010 O
b110011 J
b110010 I
b11100 ,"
b110011 *"
b110010 +"
1^
1Z
1a
1p
0{
1u
1&"
1>
1(!
0.!
b110 \
b111 Y
b110 n
b11 z
b101 s
b110 '!
b11 -!
b110010 [
b11100 -"
b110010 l
b110011 q
b110010 &!
b110 $!
b11100 ,!
b110010 /"
0+!
1t
0y
0k
1x
1R
1?
b101 ]
b101 `
1.
b11 *!
b110011 r
b110110 w
b110 j
b11100 v
b1100010 P
b110011 _
b11100 )!
b110011 l
b110011 b
b110011 ."
b110110 q
b110110 e
b1100010 ,"
b110110 _
b110011 [
b110011 V
b110110 U
b110011 O
b110011 I
b110110 J
b110110 *"
b110011 +"
0(!
0N
1f
0g
0u
b11 '!
b10 M
b11100 b
b1000011 c
b11 s
b11100 &!
b11 $!
b110011 ,"
b11100 [
b11100 V
b1000011 -"
b11100 q
b11100 /"
b11100 O
b11100 I
b11100 ,"
b11100 +"
0p
0t
1~
0Z
1K
0L
b11 n
b110010 r
b110011 |
b110 Y
b110110 I
b1100010 J
b11 j
b110011 b
b110011 v
b110011 q
b110011 -"
b1100010 *"
b110110 +"
b110011 [
b110011 V
b110011 O
b110011 ,"
1p
0f
0R
1X
b110 n
b110010 b
b1000011 P
b1100010 V
b110010 l
b110 j
b110010 [
b110010 -"
b1000011 J
b1100010 ,"
b1100010 O
b110010 ."
b1000011 *"
1N
1f
0T
b11 M
b110011 b
b1 S
b1000011 ,"
b110011 [
b110011 -"
1Q
0K
1L
b110110 O
b1100010 I
b110110 J
b110110 *"
b1100010 +"
1H
0N
b1 M
b110110 ,"
0L
b111 G
b1000011 J
b1000011 +"
b1000011 *"
1F
b1100010 *"
#85000
0!
00
#90000
1!
10
0<
0)"
b1 ("
b110001001000011001101100011001100110010000111000000110000000110 2"
13"
b10 E
b110001000000000000000000000000001000011000000000000000000000000001101100000000000000000000000000011001100000000000000000000000000110010000000000000000000000000000111000000000000000000000000000000110000000000000000000000000000000110 /
0B
0>
1C
0D
0?
b10 $"
0.
03"
0#
#95000
0!
00
